# 3ds Max Wavefront OBJ Exporter v0.97b - (c)2007 guruware
# File Created: 30.10.2018 22:41:11

mtllib stairs01.mtl

#
# object stairs01
#

v  -319.5966 -600.4601 429.4909
v  -318.7881 -591.3780 -449.1229
v  320.7243 -590.7831 -448.5281
v  319.9158 -599.8652 430.0855
v  -320.7131 599.8887 429.4572
v  318.7993 600.4835 430.0518
v  318.8916 590.1506 341.1554
v  -320.6208 589.5558 340.5608
v  319.3649 -7.5753 430.0689
v  319.3503 8.1939 430.0684
v  -320.1621 7.5989 429.4738
v  -320.1475 -8.1703 429.4743
v  319.8204 -8.3704 -59.0722
v  319.7954 7.7371 -48.3013
v  -319.6920 -8.9652 -59.6668
v  -319.7169 7.1423 -48.8959
v  318.8176 580.8390 430.0524
v  -320.6948 580.2441 429.4578
v  318.8395 557.3004 430.0530
v  318.8248 573.0554 430.0526
v  -320.6876 572.4606 429.4579
v  -320.6729 556.7054 429.4584
v  318.8614 533.7627 430.0537
v  318.8467 549.5217 430.0532
v  -320.6656 548.9268 429.4586
v  -320.6510 533.1678 429.4591
v  318.8833 510.2251 430.0543
v  318.8686 525.9872 430.0539
v  -320.6438 525.3923 429.4593
v  -320.6291 509.6302 429.4597
v  318.9052 486.6882 430.0550
v  318.8905 502.4519 430.0546
v  -320.6219 501.8571 429.4600
v  -320.6072 486.0934 429.4604
v  318.9271 463.1514 430.0557
v  318.9124 478.9164 430.0552
v  -320.6000 478.3215 429.4606
v  -320.5853 462.5565 429.4611
v  318.9489 439.6146 430.0563
v  318.9343 455.3806 430.0559
v  -320.5781 454.7858 429.4613
v  -320.5634 439.0198 429.4617
v  318.9709 416.0781 430.0570
v  318.9562 431.8448 430.0565
v  -320.5562 431.2500 429.4619
v  -320.5415 415.4832 429.4624
v  318.9927 392.5419 430.0576
v  318.9781 408.3090 430.0572
v  -320.5343 407.7140 429.4626
v  -320.5197 391.9471 429.4630
v  319.0146 369.0054 430.0583
v  319.0000 384.7731 430.0579
v  -320.5124 384.1782 429.4633
v  -320.4978 368.4103 429.4637
v  319.0365 345.4690 430.0590
v  319.0219 361.2371 430.0585
v  -320.4905 360.6420 429.4639
v  -320.4759 344.8740 429.4644
v  319.0584 321.9326 430.0596
v  319.0438 337.7009 430.0592
v  -320.4686 337.1060 429.4646
v  -320.4540 321.3377 429.4650
v  319.0803 298.3963 430.0603
v  319.0656 314.1646 430.0598
v  -320.4467 313.5698 429.4652
v  -320.4321 297.8012 429.4657
v  319.1022 274.8599 430.0609
v  319.0875 290.6285 430.0605
v  -320.4249 290.0334 429.4659
v  -320.4102 274.2650 429.4663
v  319.1241 251.3236 430.0616
v  319.1094 267.0923 430.0612
v  -320.4030 266.4974 429.4666
v  -320.3883 250.7286 429.4670
v  319.1460 227.7874 430.0623
v  319.1313 243.5562 430.0618
v  -320.3811 242.9612 429.4672
v  -320.3664 227.1925 429.4677
v  319.1679 204.2509 430.0629
v  319.1532 220.0200 430.0625
v  -320.3592 219.4251 429.4679
v  -320.3445 203.6561 429.4683
v  319.1898 180.7148 430.0636
v  319.1751 196.4836 430.0631
v  -320.3373 195.8888 429.4685
v  -320.3226 180.1198 429.4690
v  319.2117 157.1786 430.0642
v  319.1970 172.9475 430.0638
v  -320.3154 172.3525 429.4692
v  -320.3007 156.5835 429.4696
v  319.2336 133.6422 430.0649
v  319.2189 149.4113 430.0645
v  -320.2935 148.8162 429.4698
v  -320.2788 133.0474 429.4703
v  319.2554 110.1060 430.0656
v  319.2408 125.8749 430.0651
v  -320.2716 125.2801 429.4705
v  -320.2570 109.5110 429.4709
v  319.2773 86.5696 430.0662
v  319.2627 102.3389 430.0658
v  -320.2497 101.7438 429.4712
v  -320.2350 85.9747 429.4716
v  319.2992 63.0335 430.0669
v  319.2846 78.8025 430.0665
v  -320.2278 78.2076 429.4719
v  -320.2132 62.4385 429.4723
v  319.3211 39.4972 430.0676
v  319.3065 55.2664 430.0671
v  -320.2059 54.6714 429.4725
v  -320.1913 38.9023 429.4730
v  319.3430 15.9611 430.0682
v  319.3283 31.7300 430.0677
v  -320.1841 31.1352 429.4731
v  -320.1694 15.3660 429.4736
v  -319.6148 -580.8075 429.4904
v  319.8976 -580.2126 430.0850
v  -319.6367 -557.2714 429.4897
v  -319.6221 -573.0402 429.4901
v  319.8903 -572.4453 430.0847
v  319.8756 -556.6763 430.0843
v  -319.6586 -533.7350 429.4890
v  -319.6440 -549.5040 429.4895
v  319.8684 -548.9091 430.0841
v  319.8538 -533.1401 430.0836
v  -319.6805 -510.1988 429.4883
v  -319.6659 -525.9677 429.4888
v  319.8465 -525.3728 430.0834
v  319.8319 -509.6039 430.0829
v  -319.7024 -486.6625 429.4877
v  -319.6877 -502.4315 429.4882
v  319.8246 -501.8366 430.0828
v  319.8100 -486.0676 430.0823
v  -319.7243 -463.1263 429.4871
v  -319.7097 -478.8952 429.4875
v  319.8027 -478.3003 430.0821
v  319.7881 -462.5313 430.0817
v  -319.7462 -439.5900 429.4864
v  -319.7315 -455.3590 429.4868
v  319.7809 -454.7640 430.0814
v  319.7662 -438.9950 430.0810
v  -319.7681 -416.0537 429.4857
v  -319.7534 -431.8227 429.4861
v  319.7590 -431.2278 430.0807
v  319.7443 -415.4587 430.0803
v  -319.7900 -392.5175 429.4850
v  -319.7753 -408.2865 429.4855
v  319.7371 -407.6915 430.0801
v  319.7224 -391.9225 430.0797
v  -319.8119 -368.9812 429.4844
v  -319.7972 -384.7502 429.4848
v  319.7152 -384.1553 430.0794
v  319.7005 -368.3862 430.0790
v  -319.8338 -345.4449 429.4837
v  -319.8191 -361.2140 429.4842
v  319.6933 -360.6190 430.0788
v  319.6786 -344.8500 430.0783
v  -319.8557 -321.9087 429.4831
v  -319.8410 -337.6777 429.4835
v  319.6714 -337.0828 430.0781
v  319.6567 -321.3138 430.0777
v  -319.8776 -298.3725 429.4824
v  -319.8629 -314.1415 429.4828
v  319.6495 -313.5465 430.0775
v  319.6348 -297.7775 430.0770
v  -319.8994 -274.8363 429.4818
v  -319.8848 -290.6053 429.4822
v  319.6276 -290.0103 430.0768
v  319.6129 -274.2412 430.0764
v  -319.9213 -251.2999 429.4811
v  -319.9067 -267.0691 429.4815
v  319.6057 -266.4740 430.0761
v  319.5911 -250.7050 430.0757
v  -319.9432 -227.7637 429.4804
v  -319.9286 -243.5327 429.4809
v  319.5838 -242.9378 430.0755
v  319.5692 -227.1688 430.0750
v  -319.9651 -204.2273 429.4798
v  -319.9505 -219.9965 429.4802
v  319.5619 -219.4016 430.0748
v  319.5473 -203.6324 430.0744
v  -319.9870 -180.6911 429.4791
v  -319.9724 -196.4602 429.4796
v  319.5400 -195.8653 430.0742
v  319.5254 -180.0961 430.0737
v  -320.0089 -157.1550 429.4785
v  -319.9942 -172.9240 429.4789
v  319.5182 -172.3290 430.0735
v  319.5035 -156.5599 430.0731
v  -320.0308 -133.6186 429.4778
v  -320.0161 -149.3879 429.4782
v  319.4962 -148.7928 430.0728
v  319.4816 -133.0237 430.0724
v  -320.0527 -110.0824 429.4771
v  -320.0380 -125.8515 429.4776
v  319.4744 -125.2565 430.0722
v  319.4597 -109.4875 430.0717
v  -320.0746 -86.5461 429.4765
v  -320.0599 -102.3153 429.4769
v  319.4525 -101.7204 430.0715
v  319.4378 -85.9512 430.0711
v  -320.0965 -63.0098 429.4758
v  -320.0818 -78.7790 429.4763
v  319.4306 -78.1841 430.0709
v  319.4159 -62.4148 430.0704
v  -320.1184 -39.4736 429.4752
v  -320.1037 -55.2427 429.4756
v  319.4087 -54.6477 430.0702
v  319.3940 -38.8787 430.0698
v  -320.1403 -15.9374 429.4745
v  -320.1256 -31.7065 429.4749
v  319.3868 -31.1116 430.0695
v  319.3721 -15.3423 430.0691
v  318.9219 570.6434 328.1109
v  318.9578 547.4655 312.6121
v  318.9332 563.3470 323.2318
v  318.9938 524.2935 297.1170
v  318.9691 540.2137 307.7628
v  319.0297 501.1246 281.6242
v  319.0050 517.0750 292.2900
v  319.0657 477.9589 266.1334
v  319.0409 493.9321 276.8146
v  319.1017 454.7948 250.6437
v  319.0768 470.7871 261.3376
v  319.1376 431.6321 235.1550
v  319.1128 447.6398 245.8593
v  319.1735 408.4708 219.6671
v  319.1487 424.4911 230.3798
v  319.2095 385.3102 204.1797
v  319.1846 401.3416 214.8998
v  319.2454 362.1502 188.6928
v  319.2205 378.1912 199.4193
v  319.2814 338.9908 173.2062
v  319.2565 355.0400 183.9382
v  319.3173 315.8318 157.7199
v  319.2924 331.8883 168.4568
v  319.3533 292.6733 142.2339
v  319.3283 308.7360 152.9750
v  319.3892 269.5150 126.7481
v  319.3643 285.5834 137.4930
v  319.4251 246.3571 111.2626
v  319.4002 262.4305 122.0109
v  319.4611 223.1993 95.7771
v  319.4361 239.2776 106.5285
v  319.4970 200.0417 80.2917
v  319.4720 216.1240 91.0459
v  319.5330 176.8843 64.8066
v  319.5080 192.9705 75.5633
v  319.5689 153.7272 49.3215
v  319.5439 169.8167 60.0805
v  319.6048 130.5700 33.8364
v  319.5798 146.6628 44.5977
v  319.6407 107.4131 18.3516
v  319.6158 123.5088 29.1147
v  319.6767 84.2562 2.8666
v  319.6517 100.3546 13.6316
v  319.7126 61.0994 -12.6181
v  319.6877 77.2003 -1.8516
v  319.7486 37.9429 -28.1028
v  319.7236 54.0459 -17.3347
v  319.7845 14.7862 -43.5875
v  319.7595 30.8917 -32.8180
v  320.6938 -571.1383 -435.3918
v  320.6829 -564.1167 -430.6965
v  320.6579 -547.9830 -419.9080
v  320.6470 -540.9608 -415.2122
v  320.6219 -524.8278 -404.4243
v  320.6111 -517.8050 -399.7281
v  320.5860 -501.6725 -388.9404
v  320.5751 -494.6490 -384.2438
v  320.5500 -478.5173 -373.4567
v  320.5392 -471.4931 -368.7596
v  320.5141 -455.3622 -357.9730
v  320.5032 -448.3372 -353.2755
v  320.4782 -432.2070 -342.4892
v  320.4673 -425.1813 -337.7912
v  320.4423 -409.0518 -327.0054
v  320.4314 -402.0253 -322.3069
v  320.4063 -385.8966 -311.5218
v  320.3954 -378.8694 -306.8227
v  320.3704 -362.7415 -296.0381
v  320.3595 -355.7134 -291.3384
v  320.3345 -339.5863 -280.5543
v  320.3235 -332.5574 -275.8542
v  320.2985 -316.4312 -265.0707
v  320.2876 -309.4013 -260.3698
v  320.2626 -293.2762 -249.5870
v  320.2517 -286.2453 -244.8856
v  320.2267 -270.1210 -234.1033
v  320.2157 -263.0892 -229.4012
v  320.1907 -246.9660 -218.6197
v  320.1798 -239.9332 -213.9168
v  320.1548 -223.8110 -203.1361
v  320.1439 -216.7771 -198.4325
v  320.1189 -200.6560 -187.6525
v  320.1079 -193.6209 -182.9482
v  320.0829 -177.5010 -172.1689
v  320.0720 -170.4646 -167.4637
v  320.0470 -154.3461 -156.6854
v  320.0361 -147.3085 -151.9793
v  320.0110 -131.1913 -141.2018
v  320.0001 -124.1523 -136.4948
v  319.9751 -108.0365 -125.7183
v  319.9642 -100.9961 -121.0104
v  319.9392 -84.8817 -110.2349
v  319.9283 -77.8397 -105.5259
v  319.9032 -61.7269 -94.7514
v  319.8923 -54.6833 -90.0413
v  319.8673 -38.5721 -79.2679
v  319.8564 -31.5268 -74.5568
v  319.8314 -15.4175 -63.7845
v  -320.5905 570.0486 327.5163
v  -320.5546 546.8706 312.0175
v  -320.5792 562.7522 322.6372
v  -320.5186 523.6986 296.5224
v  -320.5433 539.6189 307.1682
v  -320.4827 500.5298 281.0296
v  -320.5074 516.4801 291.6954
v  -320.4467 477.3640 265.5388
v  -320.4715 493.3373 276.2200
v  -320.4107 454.2000 250.0491
v  -320.4355 470.1923 260.7430
v  -320.3748 431.0372 234.5604
v  -320.3996 447.0449 245.2646
v  -320.3389 407.8759 219.0724
v  -320.3637 423.8963 229.7852
v  -320.3029 384.7154 203.5851
v  -320.3278 400.7468 214.3052
v  -320.2670 361.5554 188.0982
v  -320.2919 377.5964 198.8247
v  -320.2310 338.3960 172.6116
v  -320.2559 354.4452 183.3436
v  -320.1951 315.2370 157.1253
v  -320.2200 331.2935 167.8622
v  -320.1591 292.0784 141.6393
v  -320.1841 308.1412 152.3804
v  -320.1232 268.9202 126.1535
v  -320.1481 284.9886 136.8984
v  -320.0873 245.7623 110.6680
v  -320.1122 261.8356 121.4163
v  -320.0513 222.6044 95.1825
v  -320.0763 238.6827 105.9339
v  -320.0154 199.4469 79.6971
v  -320.0403 215.5292 90.4513
v  -319.9794 176.2895 64.2120
v  -320.0044 192.3756 74.9687
v  -319.9435 153.1323 48.7269
v  -319.9685 169.2218 59.4859
v  -319.9076 129.9752 33.2418
v  -319.9326 146.0680 44.0031
v  -319.8716 106.8182 17.7570
v  -319.8966 122.9139 28.5201
v  -319.8357 83.6613 2.2720
v  -319.8607 99.7598 13.0370
v  -319.7997 60.5045 -13.2127
v  -319.8247 76.6055 -2.4462
v  -319.7638 37.3480 -28.6974
v  -319.7888 53.4510 -17.9293
v  -319.7279 14.1913 -44.1821
v  -319.7529 30.2968 -33.4126
v  -318.8186 -571.7332 -435.9865
v  -318.8295 -564.7115 -431.2912
v  -318.8545 -548.5779 -420.5027
v  -318.8654 -541.5557 -415.8069
v  -318.8904 -525.4227 -405.0190
v  -318.9013 -518.3998 -400.3228
v  -318.9264 -502.2674 -389.5351
v  -318.9373 -495.2439 -384.8386
v  -318.9623 -479.1122 -374.0515
v  -318.9732 -472.0880 -369.3543
v  -318.9983 -455.9570 -358.5677
v  -319.0092 -448.9321 -353.8701
v  -319.0342 -432.8018 -343.0838
v  -319.0451 -425.7762 -338.3858
v  -319.0701 -409.6466 -327.6000
v  -319.0810 -402.6202 -322.9016
v  -319.1061 -386.4915 -312.1164
v  -319.1170 -379.4642 -307.4173
v  -319.1420 -363.3363 -296.6327
v  -319.1529 -356.3082 -291.9330
v  -319.1779 -340.1812 -281.1489
v  -319.1888 -333.1523 -276.4488
v  -319.2139 -317.0260 -265.6653
v  -319.2248 -309.9962 -260.9644
v  -319.2498 -293.8710 -250.1816
v  -319.2607 -286.8402 -245.4802
v  -319.2857 -270.7159 -234.6979
v  -319.2967 -263.6841 -229.9958
v  -319.3217 -247.5609 -219.2143
v  -319.3326 -240.5281 -214.5114
v  -319.3576 -224.4059 -203.7307
v  -319.3685 -217.3719 -199.0271
v  -319.3935 -201.2508 -188.2471
v  -319.4044 -194.2157 -183.5428
v  -319.4295 -178.0959 -172.7635
v  -319.4404 -171.0595 -168.0583
v  -319.4654 -154.9410 -157.2800
v  -319.4763 -147.9033 -152.5739
v  -319.5013 -131.7861 -141.7964
v  -319.5123 -124.7472 -137.0894
v  -319.5373 -108.6313 -126.3129
v  -319.5482 -101.5909 -121.6050
v  -319.5732 -85.4765 -110.8295
v  -319.5841 -78.4345 -106.1205
v  -319.6092 -62.3217 -95.3460
v  -319.6201 -55.2781 -90.6359
v  -319.6451 -39.1670 -79.8625
v  -319.6560 -32.1216 -75.1514
v  -319.6810 -16.0123 -64.3792
v  307.5735 12.0671 450.2833
v  -308.4302 11.4940 449.7106
v  -308.4083 -12.0425 449.7112
v  307.5954 -11.4692 450.2840
v  308.0400 23.1306 -62.5956
v  308.0760 -0.0251 -78.0795
v  -307.9636 22.5576 -63.1684
v  -307.9277 -0.5981 -78.6522
v  -308.9556 576.3638 449.6947
v  307.0481 576.9368 450.2675
v  -308.9337 552.8275 449.6954
v  307.0699 553.4008 450.2681
v  -308.9118 529.2916 449.6960
v  307.0918 529.8646 450.2688
v  -308.8899 505.7550 449.6967
v  307.1137 506.3280 450.2695
v  -308.8680 482.2190 449.6974
v  307.1356 482.7920 450.2701
v  -308.8462 458.6825 449.6981
v  307.1575 459.2555 450.2708
v  -308.8242 435.1464 449.6987
v  307.1794 435.7194 450.2715
v  -308.8024 411.6100 449.6993
v  307.2013 412.1833 450.2721
v  -308.7805 388.0741 449.7000
v  307.2232 388.6471 450.2728
v  -308.7586 364.5376 449.7007
v  307.2451 365.1108 450.2734
v  -308.7367 341.0013 449.7013
v  307.2670 341.5746 450.2741
v  -308.7148 317.4652 449.7020
v  307.2889 318.0382 450.2747
v  -308.6929 293.9288 449.7026
v  307.3108 294.5020 450.2754
v  -308.6710 270.3927 449.7033
v  307.3326 270.9657 450.2761
v  -308.6491 246.8564 449.7040
v  307.3546 247.4296 450.2767
v  -308.6272 223.3203 449.7047
v  307.3764 223.8933 450.2774
v  -308.6053 199.7839 449.7053
v  307.3983 200.3569 450.2781
v  -308.5834 176.2476 449.7060
v  307.4202 176.8208 450.2787
v  -308.5616 152.7114 449.7066
v  307.4421 153.2846 450.2794
v  -308.5397 129.1752 449.7073
v  307.4640 129.7482 450.2800
v  -308.5178 105.6389 449.7079
v  307.4859 106.2120 450.2807
v  -308.4959 82.1027 449.7086
v  307.5078 82.6757 450.2813
v  -308.4740 58.5664 449.7093
v  307.5297 59.1395 450.2820
v  -308.4521 35.0302 449.7099
v  307.5516 35.6032 450.2827
v  308.1208 -576.3394 450.2999
v  -307.8829 -576.9124 449.7271
v  308.0989 -552.8030 450.2992
v  -307.9048 -553.3762 449.7264
v  308.0770 -529.2668 450.2985
v  -307.9267 -529.8398 449.7257
v  308.0551 -505.7306 450.2978
v  -307.9486 -506.3036 449.7251
v  308.0332 -482.1943 450.2972
v  -307.9705 -482.7674 449.7245
v  308.0113 -458.6581 450.2966
v  -307.9924 -459.2311 449.7238
v  307.9894 -435.1218 450.2959
v  -308.0143 -435.6948 449.7231
v  307.9675 -411.5855 450.2952
v  -308.0361 -412.1586 449.7225
v  307.9456 -388.0493 450.2946
v  -308.0580 -388.6224 449.7218
v  307.9237 -364.5130 450.2939
v  -308.0799 -365.0861 449.7211
v  307.9019 -340.9768 450.2932
v  -308.1018 -341.5499 449.7205
v  307.8799 -317.4406 450.2926
v  -308.1237 -318.0137 449.7198
v  307.8581 -293.9042 450.2919
v  -308.1456 -294.4774 449.7192
v  307.8362 -270.3680 450.2913
v  -308.1675 -270.9412 449.7185
v  307.8143 -246.8318 450.2906
v  -308.1894 -247.4048 449.7178
v  307.7924 -223.2955 450.2899
v  -308.2113 -223.8686 449.7172
v  307.7705 -199.7592 450.2893
v  -308.2332 -200.3323 449.7165
v  307.7486 -176.2230 450.2886
v  -308.2551 -176.7961 449.7159
v  307.7267 -152.6867 450.2880
v  -308.2769 -153.2600 449.7152
v  307.7048 -129.1505 450.2873
v  -308.2989 -129.7235 449.7145
v  307.6829 -105.6143 450.2867
v  -308.3207 -106.1874 449.7139
v  307.6610 -82.0780 450.2860
v  -308.3426 -82.6511 449.7133
v  307.6391 -58.5416 450.2853
v  -308.3645 -59.1149 449.7126
v  307.6172 -35.0056 450.2847
v  -308.3864 -35.5787 449.7119
v  307.1776 578.8640 309.0202
v  307.2135 555.7083 293.5362
v  307.2495 532.5531 278.0523
v  307.2854 509.3973 262.5682
v  307.3214 486.2419 247.0842
v  307.3572 463.0862 231.6003
v  307.3932 439.9305 216.1162
v  307.4291 416.7750 200.6323
v  307.4651 393.6197 185.1483
v  307.5010 370.4641 169.6643
v  307.5369 347.3083 154.1804
v  307.5729 324.1530 138.6962
v  307.6088 300.9972 123.2123
v  307.6447 277.8416 107.7283
v  307.6807 254.6862 92.2444
v  307.7166 231.5305 76.7603
v  307.7526 208.3749 61.2764
v  307.7885 185.2193 45.7923
v  307.8244 162.0639 30.3083
v  307.8604 138.9083 14.8245
v  307.8963 115.7528 -0.6596
v  307.9322 92.5972 -16.1436
v  307.9682 69.4416 -31.6276
v  308.0041 46.2861 -47.1116
v  308.9384 -555.7587 -449.6954
v  308.9025 -532.6030 -434.2114
v  308.8665 -509.4475 -418.7275
v  308.8306 -486.2919 -403.2433
v  308.7947 -463.1364 -387.7593
v  308.7588 -439.9808 -372.2755
v  308.7228 -416.8252 -356.7914
v  308.6869 -393.6697 -341.3075
v  308.6509 -370.5141 -325.8234
v  308.6150 -347.3586 -310.3394
v  308.5791 -324.2030 -294.8555
v  308.5431 -301.0474 -279.3715
v  308.5072 -277.8918 -263.8874
v  308.4713 -254.7363 -248.4034
v  308.4353 -231.5808 -232.9194
v  308.3994 -208.4252 -217.4355
v  308.3634 -185.2696 -201.9514
v  308.3275 -162.1140 -186.4675
v  308.2916 -138.9584 -170.9835
v  308.2556 -115.8029 -155.4994
v  308.2197 -92.6475 -140.0155
v  308.1838 -69.4918 -124.5316
v  308.1479 -46.3363 -109.0475
v  308.1119 -23.1806 -93.5635
v  -308.8261 578.2910 308.4474
v  -308.7902 555.1354 292.9635
v  -308.7542 531.9801 277.4796
v  -308.7183 508.8243 261.9955
v  -308.6823 485.6689 246.5115
v  -308.6464 462.5132 231.0275
v  -308.6105 439.3575 215.5435
v  -308.5745 416.2021 200.0595
v  -308.5386 393.0467 184.5755
v  -308.5027 369.8911 169.0915
v  -308.4667 346.7354 153.6076
v  -308.4308 323.5800 138.1235
v  -308.3948 300.4242 122.6395
v  -308.3589 277.2686 107.1555
v  -308.3230 254.1132 91.6716
v  -308.2870 230.9575 76.1875
v  -308.2511 207.8019 60.7036
v  -308.2152 184.6464 45.2195
v  -308.1793 161.4909 29.7356
v  -308.1433 138.3353 14.2517
v  -308.1074 115.1798 -1.2324
v  -308.0714 92.0242 -16.7164
v  -308.0355 68.8686 -32.2003
v  -307.9996 45.7131 -47.6843
v  -307.0652 -556.3317 -450.2681
v  -307.1012 -533.1760 -434.7841
v  -307.1371 -510.0205 -419.3002
v  -307.1731 -486.8649 -403.8161
v  -307.2090 -463.7094 -388.3321
v  -307.2449 -440.5538 -372.8482
v  -307.2809 -417.3982 -357.3642
v  -307.3168 -394.2427 -341.8802
v  -307.3527 -371.0871 -326.3962
v  -307.3886 -347.9315 -310.9121
v  -307.4246 -324.7760 -295.4282
v  -307.4605 -301.6204 -279.9442
v  -307.4965 -278.4648 -264.4601
v  -307.5324 -255.3093 -248.9762
v  -307.5683 -232.1537 -233.4921
v  -307.6043 -208.9981 -218.0082
v  -307.6402 -185.8426 -202.5241
v  -307.6761 -162.6870 -187.0402
v  -307.7121 -139.5314 -171.5563
v  -307.7480 -116.3759 -156.0721
v  -307.7840 -93.2204 -140.5883
v  -307.8199 -70.0648 -125.1043
v  -307.8558 -46.9092 -109.6202
v  -307.8918 -23.7536 -94.1363
# 608 vertices

vn -0.5768 -0.5810 0.5742
vn -0.5513 -0.3840 -0.7407
vn 0.5534 -0.3830 -0.7396
vn 0.5768 -0.5800 0.5753
vn -0.5728 0.6112 0.5462
vn 0.5706 0.6123 0.5473
vn 0.6245 0.6707 -0.4002
vn -0.6250 0.6695 -0.4014
vn 0.7117 -0.4460 0.5427
vn 0.7095 0.4497 0.5425
vn -0.7114 0.4484 0.5412
vn -0.7119 -0.4473 0.5414
vn -0.3780 -0.2452 -0.8928
vn 0.8306 0.3458 -0.4366
vn 0.3801 -0.2445 -0.8921
vn -0.8304 0.3442 -0.4381
vn 0.7537 -0.3580 0.5511
vn -0.7541 -0.3594 0.5497
vn 0.7479 -0.3720 0.5499
vn 0.6543 0.5356 0.5339
vn -0.6563 0.5344 0.5326
vn -0.7482 -0.3734 0.5485
vn 0.7431 -0.3829 0.5489
vn 0.6646 0.5214 0.5352
vn -0.6666 0.5201 0.5340
vn -0.7434 -0.3842 0.5475
vn 0.7391 -0.3916 0.5481
vn 0.6722 0.5104 0.5363
vn -0.6742 0.5091 0.5351
vn -0.7394 -0.3930 0.5467
vn 0.7358 -0.3988 0.5474
vn 0.6781 0.5016 0.5372
vn -0.6800 0.5003 0.5360
vn -0.7360 -0.4001 0.5460
vn 0.7329 -0.4048 0.5468
vn 0.6827 0.4945 0.5379
vn -0.6846 0.4932 0.5367
vn -0.7332 -0.4061 0.5455
vn 0.7305 -0.4098 0.5463
vn 0.6865 0.4886 0.5385
vn -0.6884 0.4873 0.5373
vn -0.7307 -0.4112 0.5450
vn 0.7283 -0.4142 0.5459
vn 0.6896 0.4836 0.5390
vn -0.6915 0.4824 0.5378
vn -0.7286 -0.4155 0.5446
vn 0.7264 -0.4180 0.5455
vn 0.6922 0.4794 0.5395
vn -0.6941 0.4781 0.5382
vn -0.7267 -0.4193 0.5442
vn 0.7248 -0.4213 0.5452
vn 0.6944 0.4757 0.5398
vn -0.6963 0.4744 0.5385
vn -0.7250 -0.4226 0.5439
vn 0.7233 -0.4242 0.5449
vn 0.6964 0.4726 0.5402
vn -0.6982 0.4713 0.5389
vn -0.7235 -0.4255 0.5436
vn 0.7219 -0.4268 0.5447
vn 0.6980 0.4698 0.5405
vn -0.6999 0.4685 0.5392
vn -0.7222 -0.4281 0.5433
vn 0.7207 -0.4291 0.5444
vn 0.6995 0.4673 0.5407
vn -0.7014 0.4660 0.5394
vn -0.7210 -0.4304 0.5431
vn 0.7197 -0.4312 0.5442
vn 0.7008 0.4650 0.5409
vn -0.7027 0.4637 0.5396
vn -0.7199 -0.4325 0.5429
vn 0.7187 -0.4331 0.5440
vn 0.7020 0.4631 0.5411
vn -0.7038 0.4617 0.5398
vn -0.7189 -0.4344 0.5427
vn 0.7178 -0.4348 0.5439
vn 0.7030 0.4613 0.5413
vn -0.7049 0.4599 0.5400
vn -0.7180 -0.4361 0.5425
vn 0.7169 -0.4363 0.5437
vn 0.7039 0.4596 0.5415
vn -0.7058 0.4583 0.5402
vn -0.7171 -0.4377 0.5424
vn 0.7162 -0.4378 0.5436
vn 0.7048 0.4581 0.5416
vn -0.7067 0.4568 0.5403
vn -0.7164 -0.4391 0.5422
vn 0.7154 -0.4391 0.5434
vn 0.7056 0.4568 0.5418
vn -0.7074 0.4555 0.5405
vn -0.7156 -0.4404 0.5421
vn 0.7148 -0.4403 0.5433
vn 0.7063 0.4555 0.5419
vn -0.7081 0.4542 0.5406
vn -0.7150 -0.4416 0.5420
vn 0.7142 -0.4414 0.5432
vn 0.7069 0.4544 0.5420
vn -0.7088 0.4530 0.5407
vn -0.7144 -0.4428 0.5419
vn 0.7136 -0.4425 0.5431
vn 0.7075 0.4533 0.5421
vn -0.7094 0.4520 0.5408
vn -0.7138 -0.4438 0.5418
vn 0.7131 -0.4435 0.5430
vn 0.7081 0.4523 0.5422
vn -0.7099 0.4510 0.5409
vn -0.7133 -0.4448 0.5417
vn 0.7126 -0.4444 0.5429
vn 0.7086 0.4514 0.5423
vn -0.7105 0.4501 0.5410
vn -0.7128 -0.4457 0.5416
vn 0.7121 -0.4452 0.5428
vn 0.7091 0.4505 0.5424
vn -0.7109 0.4492 0.5411
vn -0.7123 -0.4465 0.5415
vn -0.7172 0.4377 0.5422
vn 0.7154 0.4391 0.5436
vn -0.7171 0.4380 0.5422
vn -0.7059 -0.4579 0.5404
vn 0.7057 -0.4566 0.5417
vn 0.7152 0.4393 0.5435
vn -0.7169 0.4382 0.5422
vn -0.7061 -0.4577 0.5404
vn 0.7059 -0.4564 0.5417
vn 0.7151 0.4396 0.5435
vn -0.7168 0.4385 0.5422
vn -0.7062 -0.4574 0.5404
vn 0.7060 -0.4561 0.5417
vn 0.7150 0.4398 0.5435
vn -0.7167 0.4388 0.5421
vn -0.7064 -0.4571 0.5404
vn 0.7062 -0.4558 0.5418
vn 0.7148 0.4401 0.5435
vn -0.7165 0.4390 0.5421
vn -0.7065 -0.4568 0.5405
vn 0.7064 -0.4555 0.5418
vn 0.7147 0.4404 0.5434
vn -0.7163 0.4393 0.5421
vn -0.7067 -0.4566 0.5405
vn 0.7065 -0.4552 0.5418
vn 0.7145 0.4407 0.5434
vn -0.7162 0.4396 0.5420
vn -0.7069 -0.4562 0.5405
vn 0.7067 -0.4549 0.5418
vn 0.7144 0.4410 0.5434
vn -0.7160 0.4399 0.5420
vn -0.7071 -0.4559 0.5406
vn 0.7069 -0.4546 0.5419
vn 0.7142 0.4413 0.5433
vn -0.7158 0.4403 0.5420
vn -0.7072 -0.4556 0.5406
vn 0.7071 -0.4543 0.5419
vn 0.7140 0.4416 0.5433
vn -0.7157 0.4406 0.5419
vn -0.7074 -0.4552 0.5406
vn 0.7073 -0.4539 0.5420
vn 0.7138 0.4419 0.5433
vn -0.7155 0.4410 0.5419
vn -0.7076 -0.4549 0.5407
vn 0.7075 -0.4536 0.5420
vn 0.7136 0.4423 0.5432
vn -0.7153 0.4413 0.5419
vn -0.7079 -0.4545 0.5407
vn 0.7077 -0.4532 0.5420
vn 0.7134 0.4427 0.5432
vn -0.7150 0.4417 0.5418
vn -0.7081 -0.4541 0.5408
vn 0.7079 -0.4528 0.5421
vn 0.7132 0.4431 0.5432
vn -0.7148 0.4421 0.5418
vn -0.7083 -0.4537 0.5408
vn 0.7082 -0.4524 0.5421
vn 0.7130 0.4435 0.5431
vn -0.7146 0.4426 0.5417
vn -0.7086 -0.4532 0.5408
vn 0.7084 -0.4519 0.5422
vn 0.7128 0.4439 0.5431
vn -0.7143 0.4430 0.5417
vn -0.7088 -0.4528 0.5409
vn 0.7087 -0.4515 0.5422
vn 0.7125 0.4443 0.5430
vn -0.7141 0.4435 0.5417
vn -0.7091 -0.4523 0.5409
vn 0.7089 -0.4510 0.5422
vn 0.7123 0.4448 0.5430
vn -0.7138 0.4440 0.5416
vn -0.7094 -0.4518 0.5410
vn 0.7092 -0.4505 0.5423
vn 0.7120 0.4453 0.5429
vn -0.7135 0.4445 0.5416
vn -0.7097 -0.4512 0.5410
vn 0.7095 -0.4499 0.5424
vn 0.7117 0.4458 0.5429
vn -0.7132 0.4451 0.5415
vn -0.7100 -0.4507 0.5411
vn 0.7098 -0.4494 0.5424
vn 0.7114 0.4464 0.5428
vn -0.7129 0.4457 0.5414
vn -0.7103 -0.4501 0.5411
vn 0.7102 -0.4488 0.5425
vn 0.7111 0.4470 0.5428
vn -0.7126 0.4463 0.5414
vn -0.7107 -0.4495 0.5412
vn 0.7105 -0.4481 0.5425
vn 0.7107 0.4476 0.5427
vn -0.7122 0.4470 0.5413
vn -0.7110 -0.4488 0.5413
vn 0.7109 -0.4475 0.5426
vn 0.7103 0.4483 0.5426
vn -0.7118 0.4477 0.5412
vn -0.7114 -0.4481 0.5413
vn 0.7113 -0.4468 0.5427
vn 0.7100 0.4490 0.5425
vn -0.6520 -0.0714 -0.7548
vn -0.6137 -0.1025 -0.7829
vn 0.8336 0.3153 -0.4536
vn -0.5821 -0.1263 -0.8033
vn 0.8332 0.3201 -0.4510
vn -0.5557 -0.1448 -0.8187
vn 0.8328 0.3238 -0.4489
vn -0.5335 -0.1596 -0.8306
vn 0.8325 0.3269 -0.4473
vn -0.5145 -0.1716 -0.8401
vn 0.8323 0.3294 -0.4459
vn -0.4983 -0.1815 -0.8478
vn 0.8321 0.3314 -0.4447
vn -0.4842 -0.1898 -0.8541
vn 0.8319 0.3332 -0.4437
vn -0.4720 -0.1972 -0.8593
vn 0.8318 0.3347 -0.4428
vn -0.4610 -0.2030 -0.8639
vn 0.8316 0.3361 -0.4421
vn -0.4514 -0.2083 -0.8677
vn 0.8315 0.3372 -0.4415
vn -0.4428 -0.2129 -0.8710
vn 0.8314 0.3383 -0.4409
vn -0.4351 -0.2170 -0.8739
vn 0.8313 0.3392 -0.4403
vn -0.4282 -0.2209 -0.8763
vn 0.8312 0.3400 -0.4398
vn -0.4218 -0.2239 -0.8786
vn 0.8311 0.3407 -0.4395
vn -0.4160 -0.2268 -0.8806
vn 0.8311 0.3414 -0.4391
vn -0.4107 -0.2294 -0.8824
vn 0.8310 0.3420 -0.4387
vn -0.4059 -0.2318 -0.8840
vn 0.8309 0.3426 -0.4384
vn -0.4015 -0.2342 -0.8854
vn 0.8309 0.3431 -0.4381
vn -0.3973 -0.2360 -0.8868
vn 0.8308 0.3436 -0.4378
vn -0.3935 -0.2378 -0.8880
vn 0.8308 0.3440 -0.4376
vn -0.3900 -0.2395 -0.8891
vn 0.8307 0.3444 -0.4373
vn -0.3867 -0.2411 -0.8901
vn 0.8307 0.3448 -0.4371
vn -0.3836 -0.2425 -0.8911
vn 0.8306 0.3451 -0.4369
vn -0.3807 -0.2439 -0.8919
vn 0.8306 0.3455 -0.4367
vn 0.8301 0.3499 -0.4342
vn -0.3420 -0.2612 -0.9027
vn 0.8301 0.3498 -0.4342
vn -0.3429 -0.2608 -0.9024
vn 0.8301 0.3497 -0.4343
vn -0.3438 -0.2607 -0.9021
vn 0.8302 0.3496 -0.4343
vn -0.3447 -0.2600 -0.9020
vn 0.8301 0.3495 -0.4344
vn -0.3457 -0.2596 -0.9017
vn 0.8302 0.3494 -0.4345
vn -0.3467 -0.2592 -0.9015
vn 0.8302 0.3493 -0.4345
vn -0.3478 -0.2590 -0.9011
vn 0.8302 0.3491 -0.4346
vn -0.3488 -0.2583 -0.9009
vn 0.8302 0.3490 -0.4347
vn -0.3500 -0.2578 -0.9006
vn 0.8302 0.3489 -0.4347
vn -0.3512 -0.2572 -0.9003
vn 0.8302 0.3488 -0.4348
vn -0.3524 -0.2567 -0.8999
vn 0.8302 0.3486 -0.4349
vn -0.3537 -0.2561 -0.8996
vn 0.8303 0.3485 -0.4350
vn -0.3551 -0.2555 -0.8992
vn 0.8303 0.3484 -0.4351
vn -0.3565 -0.2549 -0.8988
vn 0.8303 0.3482 -0.4352
vn -0.3580 -0.2542 -0.8984
vn 0.8303 0.3480 -0.4353
vn -0.3596 -0.2535 -0.8980
vn 0.8303 0.3479 -0.4354
vn -0.3612 -0.2528 -0.8976
vn 0.8304 0.3477 -0.4355
vn -0.3629 -0.2520 -0.8971
vn 0.8304 0.3475 -0.4356
vn -0.3647 -0.2512 -0.8966
vn 0.8304 0.3473 -0.4357
vn -0.3666 -0.2504 -0.8960
vn 0.8304 0.3471 -0.4358
vn -0.3687 -0.2494 -0.8955
vn 0.8305 0.3468 -0.4360
vn -0.3708 -0.2485 -0.8949
vn 0.8305 0.3466 -0.4361
vn -0.3731 -0.2477 -0.8941
vn 0.8305 0.3463 -0.4362
vn -0.3755 -0.2463 -0.8935
vn 0.8305 0.3461 -0.4364
vn 0.6536 -0.0702 -0.7536
vn 0.6153 -0.1014 -0.7817
vn -0.8333 0.3138 -0.4551
vn 0.5838 -0.1252 -0.8022
vn -0.8329 0.3185 -0.4525
vn 0.5575 -0.1438 -0.8176
vn -0.8326 0.3223 -0.4505
vn 0.5353 -0.1586 -0.8296
vn -0.8323 0.3253 -0.4488
vn 0.5164 -0.1706 -0.8392
vn -0.8321 0.3278 -0.4474
vn 0.5002 -0.1806 -0.8469
vn -0.8319 0.3299 -0.4463
vn 0.4861 -0.1889 -0.8532
vn -0.8317 0.3317 -0.4453
vn 0.4740 -0.1963 -0.8584
vn -0.8316 0.3332 -0.4444
vn 0.4630 -0.2021 -0.8630
vn -0.8314 0.3345 -0.4437
vn 0.4534 -0.2075 -0.8668
vn -0.8313 0.3357 -0.4430
vn 0.4448 -0.2121 -0.8702
vn -0.8312 0.3367 -0.4424
vn 0.4371 -0.2162 -0.8731
vn -0.8311 0.3376 -0.4419
vn 0.4302 -0.2201 -0.8755
vn -0.8311 0.3384 -0.4414
vn 0.4238 -0.2231 -0.8778
vn -0.8309 0.3392 -0.4410
vn 0.4181 -0.2260 -0.8799
vn -0.8309 0.3399 -0.4406
vn 0.4128 -0.2287 -0.8817
vn -0.8308 0.3405 -0.4403
vn 0.4080 -0.2311 -0.8833
vn -0.8307 0.3410 -0.4399
vn 0.4036 -0.2335 -0.8846
vn -0.8307 0.3415 -0.4396
vn 0.3994 -0.2353 -0.8861
vn -0.8306 0.3420 -0.4394
vn 0.3956 -0.2371 -0.8873
vn -0.8306 0.3425 -0.4391
vn 0.3921 -0.2388 -0.8884
vn -0.8305 0.3429 -0.4389
vn 0.3888 -0.2404 -0.8894
vn -0.8305 0.3432 -0.4387
vn 0.3857 -0.2418 -0.8904
vn -0.8305 0.3436 -0.4385
vn 0.3828 -0.2432 -0.8912
vn -0.8304 0.3439 -0.4383
vn -0.8299 0.3484 -0.4357
vn 0.3442 -0.2606 -0.9020
vn -0.8299 0.3483 -0.4358
vn 0.3450 -0.2602 -0.9018
vn -0.8300 0.3482 -0.4358
vn 0.3460 -0.2601 -0.9015
vn -0.8300 0.3480 -0.4358
vn 0.3469 -0.2594 -0.9013
vn -0.8300 0.3480 -0.4359
vn 0.3478 -0.2590 -0.9011
vn -0.8300 0.3479 -0.4360
vn 0.3489 -0.2585 -0.9008
vn -0.8300 0.3477 -0.4361
vn 0.3500 -0.2583 -0.9004
vn -0.8301 0.3476 -0.4361
vn 0.3510 -0.2576 -0.9002
vn -0.8300 0.3475 -0.4362
vn 0.3522 -0.2571 -0.8999
vn -0.8300 0.3474 -0.4363
vn 0.3533 -0.2566 -0.8996
vn -0.8301 0.3472 -0.4364
vn 0.3546 -0.2560 -0.8993
vn -0.8301 0.3471 -0.4364
vn 0.3559 -0.2555 -0.8989
vn -0.8301 0.3470 -0.4365
vn 0.3572 -0.2549 -0.8986
vn -0.8301 0.3468 -0.4366
vn 0.3587 -0.2542 -0.8982
vn -0.8301 0.3466 -0.4367
vn 0.3601 -0.2536 -0.8978
vn -0.8301 0.3465 -0.4368
vn 0.3617 -0.2529 -0.8973
vn -0.8302 0.3463 -0.4369
vn 0.3633 -0.2521 -0.8969
vn -0.8302 0.3461 -0.4370
vn 0.3651 -0.2514 -0.8964
vn -0.8302 0.3459 -0.4371
vn 0.3669 -0.2505 -0.8959
vn -0.8302 0.3457 -0.4372
vn 0.3688 -0.2497 -0.8954
vn -0.8303 0.3455 -0.4374
vn 0.3708 -0.2488 -0.8948
vn -0.8303 0.3453 -0.4375
vn 0.3729 -0.2478 -0.8942
vn -0.8303 0.3450 -0.4376
vn 0.3753 -0.2470 -0.8934
vn -0.8304 0.3448 -0.4377
vn 0.3776 -0.2456 -0.8928
vn -0.8304 0.3445 -0.4379
vn 0.3908 0.0019 0.9205
vn -0.3925 0.0012 0.9197
vn 0.3783 0.5571 -0.7392
vn -0.3780 0.5564 -0.7399
vn -0.3926 0.0006 0.9197
vn 0.3908 0.0014 0.9205
vn -0.3926 0.0007 0.9197
vn -0.3925 0.0008 0.9197
vn 0.3908 0.0015 0.9205
vn 0.3908 0.0016 0.9205
vn -0.3925 0.0009 0.9197
vn 0.3908 0.0017 0.9205
vn -0.3925 0.0010 0.9197
vn 0.3908 0.0018 0.9205
vn -0.3925 0.0011 0.9197
vn 0.3908 0.0020 0.9205
vn -0.3925 0.0013 0.9197
vn 0.3783 0.5574 -0.7390
vn 0.3783 0.5574 -0.7391
vn 0.3783 0.5573 -0.7391
vn 0.3783 0.5573 -0.7392
vn 0.3783 0.5572 -0.7392
vn 0.3784 0.5571 -0.7393
vn 0.3783 0.5571 -0.7393
vn -0.3779 0.5567 -0.7397
vn -0.3779 0.5567 -0.7398
vn -0.3779 0.5566 -0.7398
vn -0.3779 0.5566 -0.7399
vn -0.3779 0.5565 -0.7399
vn -0.3780 0.5565 -0.7399
vn -0.3780 0.5564 -0.7400
# 439 vertex normals

vt 1.0000 0.0000 0.0000
vt 1.0000 1.0000 0.0000
vt 0.0000 1.0000 0.0000
vt 0.0000 0.0000 0.0000
vt 1.0000 0.4934 0.0000
vt 1.0000 0.5066 0.0000
vt 0.0000 0.5066 0.0000
vt 0.0000 0.4934 0.0000
vt 1.0000 0.4932 0.0000
vt 1.0000 0.5068 0.0000
vt 0.0000 0.5068 0.0000
vt 0.0000 0.4932 0.0000
vt 1.0000 0.9836 0.0000
vt 0.0000 0.9836 0.0000
vt 1.0000 0.9640 0.0000
vt 1.0000 0.9771 0.0000
vt 0.0000 0.9772 0.0000
vt 0.0000 0.9640 0.0000
vt 1.0000 0.9444 0.0000
vt 1.0000 0.9575 0.0000
vt 0.0000 0.9575 0.0000
vt 0.0000 0.9444 0.0000
vt 1.0000 0.9248 0.0000
vt 1.0000 0.9379 0.0000
vt 0.0000 0.9379 0.0000
vt 0.0000 0.9248 0.0000
vt 1.0000 0.9052 0.0000
vt 1.0000 0.9183 0.0000
vt 0.0000 0.9183 0.0000
vt 0.0000 0.9052 0.0000
vt 1.0000 0.8856 0.0000
vt 1.0000 0.8987 0.0000
vt 0.0000 0.8987 0.0000
vt 0.0000 0.8856 0.0000
vt 1.0000 0.8660 0.0000
vt 1.0000 0.8791 0.0000
vt 0.0000 0.8791 0.0000
vt 0.0000 0.8660 0.0000
vt 1.0000 0.8464 0.0000
vt 1.0000 0.8595 0.0000
vt 0.0000 0.8595 0.0000
vt 0.0000 0.8464 0.0000
vt 1.0000 0.8268 0.0000
vt 1.0000 0.8399 0.0000
vt 0.0000 0.8399 0.0000
vt 0.0000 0.8268 0.0000
vt 1.0000 0.8072 0.0000
vt 1.0000 0.8203 0.0000
vt 0.0000 0.8203 0.0000
vt 0.0000 0.8072 0.0000
vt 1.0000 0.7875 0.0000
vt 1.0000 0.8007 0.0000
vt 0.0000 0.8007 0.0000
vt 0.0000 0.7875 0.0000
vt 1.0000 0.7679 0.0000
vt 1.0000 0.7811 0.0000
vt 0.0000 0.7811 0.0000
vt 0.0000 0.7679 0.0000
vt 1.0000 0.7483 0.0000
vt 1.0000 0.7615 0.0000
vt 0.0000 0.7615 0.0000
vt 0.0000 0.7483 0.0000
vt 1.0000 0.7287 0.0000
vt 1.0000 0.7419 0.0000
vt 0.0000 0.7419 0.0000
vt 0.0000 0.7287 0.0000
vt 1.0000 0.7091 0.0000
vt 1.0000 0.7223 0.0000
vt 0.0000 0.7223 0.0000
vt 0.0000 0.7091 0.0000
vt 1.0000 0.6895 0.0000
vt 1.0000 0.7026 0.0000
vt 0.0000 0.7026 0.0000
vt 0.0000 0.6895 0.0000
vt 1.0000 0.6699 0.0000
vt 1.0000 0.6830 0.0000
vt 0.0000 0.6830 0.0000
vt 0.0000 0.6699 0.0000
vt 1.0000 0.6503 0.0000
vt 1.0000 0.6634 0.0000
vt 0.0000 0.6634 0.0000
vt 0.0000 0.6503 0.0000
vt 1.0000 0.6307 0.0000
vt 1.0000 0.6438 0.0000
vt 0.0000 0.6438 0.0000
vt 0.0000 0.6307 0.0000
vt 1.0000 0.6111 0.0000
vt 1.0000 0.6242 0.0000
vt 0.0000 0.6242 0.0000
vt 0.0000 0.6111 0.0000
vt 1.0000 0.5915 0.0000
vt 1.0000 0.6046 0.0000
vt 0.0000 0.6046 0.0000
vt 0.0000 0.5915 0.0000
vt 1.0000 0.5719 0.0000
vt 1.0000 0.5850 0.0000
vt 0.0000 0.5850 0.0000
vt 0.0000 0.5719 0.0000
vt 1.0000 0.5523 0.0000
vt 1.0000 0.5654 0.0000
vt 0.0000 0.5654 0.0000
vt 0.0000 0.5523 0.0000
vt 1.0000 0.5326 0.0000
vt 1.0000 0.5458 0.0000
vt 0.0000 0.5458 0.0000
vt 0.0000 0.5326 0.0000
vt 1.0000 0.5130 0.0000
vt 1.0000 0.5262 0.0000
vt 0.0000 0.5262 0.0000
vt 0.0000 0.5130 0.0000
vt 0.0000 0.0164 0.0000
vt 1.0000 0.0164 0.0000
vt 0.0000 0.0360 0.0000
vt 0.0000 0.0228 0.0000
vt 1.0000 0.0228 0.0000
vt 1.0000 0.0360 0.0000
vt 0.0000 0.0556 0.0000
vt 0.0000 0.0425 0.0000
vt 1.0000 0.0425 0.0000
vt 1.0000 0.0556 0.0000
vt 0.0000 0.0752 0.0000
vt 0.0000 0.0621 0.0000
vt 1.0000 0.0621 0.0000
vt 1.0000 0.0752 0.0000
vt 0.0000 0.0948 0.0000
vt 0.0000 0.0817 0.0000
vt 1.0000 0.0817 0.0000
vt 1.0000 0.0948 0.0000
vt 0.0000 0.1144 0.0000
vt 0.0000 0.1013 0.0000
vt 1.0000 0.1013 0.0000
vt 1.0000 0.1144 0.0000
vt 0.0000 0.1340 0.0000
vt 0.0000 0.1209 0.0000
vt 1.0000 0.1209 0.0000
vt 1.0000 0.1340 0.0000
vt 0.0000 0.1536 0.0000
vt 0.0000 0.1405 0.0000
vt 1.0000 0.1405 0.0000
vt 1.0000 0.1536 0.0000
vt 0.0000 0.1732 0.0000
vt 0.0000 0.1601 0.0000
vt 1.0000 0.1601 0.0000
vt 1.0000 0.1732 0.0000
vt 0.0000 0.1928 0.0000
vt 0.0000 0.1797 0.0000
vt 1.0000 0.1797 0.0000
vt 1.0000 0.1928 0.0000
vt 0.0000 0.2125 0.0000
vt 0.0000 0.1993 0.0000
vt 1.0000 0.1993 0.0000
vt 1.0000 0.2125 0.0000
vt 0.0000 0.2321 0.0000
vt 0.0000 0.2189 0.0000
vt 1.0000 0.2189 0.0000
vt 1.0000 0.2321 0.0000
vt 0.0000 0.2517 0.0000
vt 0.0000 0.2385 0.0000
vt 1.0000 0.2385 0.0000
vt 1.0000 0.2517 0.0000
vt 0.0000 0.2713 0.0000
vt 0.0000 0.2581 0.0000
vt 1.0000 0.2581 0.0000
vt 1.0000 0.2713 0.0000
vt 0.0000 0.2909 0.0000
vt 0.0000 0.2777 0.0000
vt 1.0000 0.2777 0.0000
vt 1.0000 0.2909 0.0000
vt 0.0000 0.3105 0.0000
vt 0.0000 0.2974 0.0000
vt 1.0000 0.2974 0.0000
vt 1.0000 0.3105 0.0000
vt 0.0000 0.3301 0.0000
vt 0.0000 0.3170 0.0000
vt 1.0000 0.3170 0.0000
vt 1.0000 0.3301 0.0000
vt 0.0000 0.3497 0.0000
vt 0.0000 0.3366 0.0000
vt 1.0000 0.3366 0.0000
vt 1.0000 0.3497 0.0000
vt 0.0000 0.3693 0.0000
vt 0.0000 0.3562 0.0000
vt 1.0000 0.3562 0.0000
vt 1.0000 0.3693 0.0000
vt 0.0000 0.3889 0.0000
vt 0.0000 0.3758 0.0000
vt 1.0000 0.3758 0.0000
vt 1.0000 0.3889 0.0000
vt 0.0000 0.4085 0.0000
vt 0.0000 0.3954 0.0000
vt 1.0000 0.3954 0.0000
vt 1.0000 0.4085 0.0000
vt 0.0000 0.4281 0.0000
vt 0.0000 0.4150 0.0000
vt 1.0000 0.4150 0.0000
vt 1.0000 0.4281 0.0000
vt 0.0000 0.4477 0.0000
vt 0.0000 0.4346 0.0000
vt 1.0000 0.4346 0.0000
vt 1.0000 0.4477 0.0000
vt 0.0000 0.4674 0.0000
vt 0.0000 0.4542 0.0000
vt 1.0000 0.4542 0.0000
vt 1.0000 0.4674 0.0000
vt 0.0000 0.4870 0.0000
vt 0.0000 0.4738 0.0000
vt 1.0000 0.4738 0.0000
vt 1.0000 0.4870 0.0000
vt 1.0000 0.9835 0.0000
vt 1.0000 0.9639 0.0000
vt 1.0000 0.9773 0.0000
vt 0.0000 0.9771 0.0000
vt 1.0000 0.9442 0.0000
vt 1.0000 0.9577 0.0000
vt 1.0000 0.9246 0.0000
vt 1.0000 0.9381 0.0000
vt 1.0000 0.9050 0.0000
vt 1.0000 0.9185 0.0000
vt 1.0000 0.8854 0.0000
vt 1.0000 0.8989 0.0000
vt 1.0000 0.8658 0.0000
vt 1.0000 0.8793 0.0000
vt 1.0000 0.8462 0.0000
vt 1.0000 0.8597 0.0000
vt 1.0000 0.8265 0.0000
vt 1.0000 0.8401 0.0000
vt 1.0000 0.8069 0.0000
vt 1.0000 0.8205 0.0000
vt 1.0000 0.7873 0.0000
vt 1.0000 0.8009 0.0000
vt 1.0000 0.7677 0.0000
vt 1.0000 0.7813 0.0000
vt 1.0000 0.7481 0.0000
vt 1.0000 0.7617 0.0000
vt 1.0000 0.7285 0.0000
vt 1.0000 0.7421 0.0000
vt 1.0000 0.7089 0.0000
vt 1.0000 0.7225 0.0000
vt 1.0000 0.6893 0.0000
vt 1.0000 0.7029 0.0000
vt 1.0000 0.6697 0.0000
vt 1.0000 0.6833 0.0000
vt 1.0000 0.6501 0.0000
vt 1.0000 0.6637 0.0000
vt 1.0000 0.6304 0.0000
vt 1.0000 0.6441 0.0000
vt 1.0000 0.6108 0.0000
vt 1.0000 0.6245 0.0000
vt 1.0000 0.5912 0.0000
vt 1.0000 0.6049 0.0000
vt 1.0000 0.5716 0.0000
vt 1.0000 0.5852 0.0000
vt 1.0000 0.5520 0.0000
vt 1.0000 0.5656 0.0000
vt 1.0000 0.5324 0.0000
vt 1.0000 0.5460 0.0000
vt 1.0000 0.5128 0.0000
vt 1.0000 0.5264 0.0000
vt 1.0000 0.0166 0.0000
vt 1.0000 0.0226 0.0000
vt 1.0000 0.0362 0.0000
vt 1.0000 0.0422 0.0000
vt 1.0000 0.0559 0.0000
vt 1.0000 0.0618 0.0000
vt 1.0000 0.0755 0.0000
vt 1.0000 0.0814 0.0000
vt 1.0000 0.0951 0.0000
vt 1.0000 0.1010 0.0000
vt 1.0000 0.1147 0.0000
vt 1.0000 0.1206 0.0000
vt 1.0000 0.1343 0.0000
vt 1.0000 0.1402 0.0000
vt 1.0000 0.1539 0.0000
vt 1.0000 0.1598 0.0000
vt 1.0000 0.1735 0.0000
vt 1.0000 0.1794 0.0000
vt 1.0000 0.1931 0.0000
vt 1.0000 0.1991 0.0000
vt 1.0000 0.2127 0.0000
vt 1.0000 0.2187 0.0000
vt 1.0000 0.2323 0.0000
vt 1.0000 0.2383 0.0000
vt 1.0000 0.2519 0.0000
vt 1.0000 0.2579 0.0000
vt 1.0000 0.2715 0.0000
vt 1.0000 0.2775 0.0000
vt 1.0000 0.2911 0.0000
vt 1.0000 0.2971 0.0000
vt 1.0000 0.3107 0.0000
vt 1.0000 0.3167 0.0000
vt 1.0000 0.3304 0.0000
vt 1.0000 0.3363 0.0000
vt 1.0000 0.3500 0.0000
vt 1.0000 0.3559 0.0000
vt 1.0000 0.3696 0.0000
vt 1.0000 0.3755 0.0000
vt 1.0000 0.3892 0.0000
vt 1.0000 0.3951 0.0000
vt 1.0000 0.4088 0.0000
vt 1.0000 0.4147 0.0000
vt 1.0000 0.4284 0.0000
vt 1.0000 0.4344 0.0000
vt 1.0000 0.4480 0.0000
vt 1.0000 0.4540 0.0000
vt 1.0000 0.4676 0.0000
vt 1.0000 0.4736 0.0000
vt 1.0000 0.4872 0.0000
vt 0.0000 0.9835 0.0000
vt 0.0000 0.9773 0.0000
vt 0.0000 0.9639 0.0000
vt 0.0000 0.9577 0.0000
vt 0.0000 0.9442 0.0000
vt 0.0000 0.9381 0.0000
vt 0.0000 0.9246 0.0000
vt 0.0000 0.9185 0.0000
vt 0.0000 0.9050 0.0000
vt 0.0000 0.8989 0.0000
vt 0.0000 0.8854 0.0000
vt 0.0000 0.8793 0.0000
vt 0.0000 0.8658 0.0000
vt 0.0000 0.8597 0.0000
vt 0.0000 0.8462 0.0000
vt 0.0000 0.8401 0.0000
vt 0.0000 0.8265 0.0000
vt 0.0000 0.8205 0.0000
vt 0.0000 0.8069 0.0000
vt 0.0000 0.8009 0.0000
vt 0.0000 0.7873 0.0000
vt 0.0000 0.7813 0.0000
vt 0.0000 0.7677 0.0000
vt 0.0000 0.7617 0.0000
vt 0.0000 0.7481 0.0000
vt 0.0000 0.7421 0.0000
vt 0.0000 0.7285 0.0000
vt 0.0000 0.7225 0.0000
vt 0.0000 0.7089 0.0000
vt 0.0000 0.7029 0.0000
vt 0.0000 0.6893 0.0000
vt 0.0000 0.6833 0.0000
vt 0.0000 0.6697 0.0000
vt 0.0000 0.6637 0.0000
vt 0.0000 0.6501 0.0000
vt 0.0000 0.6441 0.0000
vt 0.0000 0.6304 0.0000
vt 0.0000 0.6245 0.0000
vt 0.0000 0.6108 0.0000
vt 0.0000 0.6049 0.0000
vt 0.0000 0.5912 0.0000
vt 0.0000 0.5852 0.0000
vt 0.0000 0.5716 0.0000
vt 0.0000 0.5656 0.0000
vt 0.0000 0.5520 0.0000
vt 0.0000 0.5460 0.0000
vt 0.0000 0.5324 0.0000
vt 0.0000 0.5264 0.0000
vt 0.0000 0.5128 0.0000
vt 0.0000 0.0166 0.0000
vt 0.0000 0.0362 0.0000
vt 0.0000 0.0226 0.0000
vt 0.0000 0.0559 0.0000
vt 0.0000 0.0422 0.0000
vt 0.0000 0.0755 0.0000
vt 0.0000 0.0618 0.0000
vt 0.0000 0.0951 0.0000
vt 0.0000 0.0814 0.0000
vt 0.0000 0.1147 0.0000
vt 0.0000 0.1010 0.0000
vt 0.0000 0.1343 0.0000
vt 0.0000 0.1206 0.0000
vt 0.0000 0.1539 0.0000
vt 0.0000 0.1402 0.0000
vt 0.0000 0.1735 0.0000
vt 0.0000 0.1598 0.0000
vt 0.0000 0.1931 0.0000
vt 0.0000 0.1794 0.0000
vt 0.0000 0.2127 0.0000
vt 0.0000 0.1991 0.0000
vt 0.0000 0.2323 0.0000
vt 0.0000 0.2187 0.0000
vt 0.0000 0.2519 0.0000
vt 0.0000 0.2383 0.0000
vt 0.0000 0.2715 0.0000
vt 0.0000 0.2579 0.0000
vt 0.0000 0.2911 0.0000
vt 0.0000 0.2775 0.0000
vt 0.0000 0.3107 0.0000
vt 0.0000 0.2971 0.0000
vt 0.0000 0.3304 0.0000
vt 0.0000 0.3167 0.0000
vt 0.0000 0.3500 0.0000
vt 0.0000 0.3363 0.0000
vt 0.0000 0.3696 0.0000
vt 0.0000 0.3559 0.0000
vt 0.0000 0.3892 0.0000
vt 0.0000 0.3755 0.0000
vt 0.0000 0.4088 0.0000
vt 0.0000 0.3951 0.0000
vt 0.0000 0.4284 0.0000
vt 0.0000 0.4147 0.0000
vt 0.0000 0.4480 0.0000
vt 0.0000 0.4344 0.0000
vt 0.0000 0.4676 0.0000
vt 0.0000 0.4540 0.0000
vt 0.0000 0.4872 0.0000
vt 0.0000 0.4736 0.0000
vt 1.0000 0.9772 0.0000
vt 1.0000 0.5098 0.0000
vt 0.0000 0.5098 0.0000
vt 0.0000 0.4902 0.0000
vt 1.0000 0.4902 0.0000
vt 0.0000 0.9804 0.0000
vt 1.0000 0.9804 0.0000
vt 0.0000 0.9608 0.0000
vt 1.0000 0.9608 0.0000
vt 0.0000 0.9412 0.0000
vt 1.0000 0.9412 0.0000
vt 0.0000 0.9216 0.0000
vt 1.0000 0.9216 0.0000
vt 0.0000 0.9020 0.0000
vt 1.0000 0.9020 0.0000
vt 0.0000 0.8824 0.0000
vt 1.0000 0.8824 0.0000
vt 0.0000 0.8627 0.0000
vt 1.0000 0.8627 0.0000
vt 0.0000 0.8431 0.0000
vt 1.0000 0.8431 0.0000
vt 0.0000 0.8235 0.0000
vt 1.0000 0.8235 0.0000
vt 0.0000 0.8039 0.0000
vt 1.0000 0.8039 0.0000
vt 0.0000 0.7843 0.0000
vt 1.0000 0.7843 0.0000
vt 0.0000 0.7647 0.0000
vt 1.0000 0.7647 0.0000
vt 0.0000 0.7451 0.0000
vt 1.0000 0.7451 0.0000
vt 0.0000 0.7255 0.0000
vt 1.0000 0.7255 0.0000
vt 0.0000 0.7059 0.0000
vt 1.0000 0.7059 0.0000
vt 0.0000 0.6863 0.0000
vt 1.0000 0.6863 0.0000
vt 0.0000 0.6667 0.0000
vt 1.0000 0.6667 0.0000
vt 0.0000 0.6471 0.0000
vt 1.0000 0.6471 0.0000
vt 0.0000 0.6275 0.0000
vt 1.0000 0.6275 0.0000
vt 0.0000 0.6078 0.0000
vt 1.0000 0.6078 0.0000
vt 0.0000 0.5882 0.0000
vt 1.0000 0.5882 0.0000
vt 0.0000 0.5686 0.0000
vt 1.0000 0.5686 0.0000
vt 0.0000 0.5490 0.0000
vt 1.0000 0.5490 0.0000
vt 0.0000 0.5294 0.0000
vt 1.0000 0.5294 0.0000
vt 1.0000 0.0196 0.0000
vt 0.0000 0.0196 0.0000
vt 1.0000 0.0392 0.0000
vt 0.0000 0.0392 0.0000
vt 1.0000 0.0588 0.0000
vt 0.0000 0.0588 0.0000
vt 1.0000 0.0784 0.0000
vt 0.0000 0.0784 0.0000
vt 1.0000 0.0980 0.0000
vt 0.0000 0.0980 0.0000
vt 1.0000 0.1176 0.0000
vt 0.0000 0.1176 0.0000
vt 1.0000 0.1373 0.0000
vt 0.0000 0.1373 0.0000
vt 1.0000 0.1569 0.0000
vt 0.0000 0.1569 0.0000
vt 1.0000 0.1765 0.0000
vt 0.0000 0.1765 0.0000
vt 1.0000 0.1961 0.0000
vt 0.0000 0.1961 0.0000
vt 1.0000 0.2157 0.0000
vt 0.0000 0.2157 0.0000
vt 1.0000 0.2353 0.0000
vt 0.0000 0.2353 0.0000
vt 1.0000 0.2549 0.0000
vt 0.0000 0.2549 0.0000
vt 1.0000 0.2745 0.0000
vt 0.0000 0.2745 0.0000
vt 1.0000 0.2941 0.0000
vt 0.0000 0.2941 0.0000
vt 1.0000 0.3137 0.0000
vt 0.0000 0.3137 0.0000
vt 1.0000 0.3333 0.0000
vt 0.0000 0.3333 0.0000
vt 1.0000 0.3529 0.0000
vt 0.0000 0.3529 0.0000
vt 1.0000 0.3725 0.0000
vt 0.0000 0.3725 0.0000
vt 1.0000 0.3922 0.0000
vt 0.0000 0.3922 0.0000
vt 1.0000 0.4118 0.0000
vt 0.0000 0.4118 0.0000
vt 1.0000 0.4314 0.0000
vt 0.0000 0.4314 0.0000
vt 1.0000 0.4510 0.0000
vt 0.0000 0.4510 0.0000
vt 1.0000 0.4706 0.0000
vt 0.0000 0.4706 0.0000
# 506 texture coords

o stairs01
g stairs01
usemtl wire_115115115
s 2
f 1/1/1 2/2/2 3/3/3 4/4/4 
s 4
f 5/4/5 6/1/6 7/2/7 8/3/8 
s 8
f 9/5/9 10/6/10 11/7/11 12/8/12 
s 16
f 13/9/13 14/10/14 10/7/10 9/8/9 
s 32
f 15/9/15 16/10/16 14/11/14 13/12/13 
s 64
f 12/5/12 11/6/11 16/11/16 15/12/15 
s 8
f 17/13/17 6/2/6 5/3/5 18/14/18 
f 19/15/19 20/16/20 21/17/21 22/18/22 
f 23/19/23 24/20/24 25/21/25 26/22/26 
f 27/23/27 28/24/28 29/25/29 30/26/30 
f 31/27/31 32/28/32 33/29/33 34/30/34 
f 35/31/35 36/32/36 37/33/37 38/34/38 
f 39/35/39 40/36/40 41/37/41 42/38/42 
f 43/39/43 44/40/44 45/41/45 46/42/46 
f 47/43/47 48/44/48 49/45/49 50/46/50 
f 51/47/51 52/48/52 53/49/53 54/50/54 
f 55/51/55 56/52/56 57/53/57 58/54/58 
f 59/55/59 60/56/60 61/57/61 62/58/62 
f 63/59/63 64/60/64 65/61/65 66/62/66 
f 67/63/67 68/64/68 69/65/69 70/66/70 
f 71/67/71 72/68/72 73/69/73 74/70/74 
f 75/71/75 76/72/76 77/73/77 78/74/78 
f 79/75/79 80/76/80 81/77/81 82/78/82 
f 83/79/83 84/80/84 85/81/85 86/82/86 
f 87/83/87 88/84/88 89/85/89 90/86/90 
f 91/87/91 92/88/92 93/89/93 94/90/94 
f 95/91/95 96/92/96 97/93/97 98/94/98 
f 99/95/99 100/96/100 101/97/101 102/98/102 
f 103/99/103 104/100/104 105/101/105 106/102/106 
f 107/103/107 108/104/108 109/105/109 110/106/110 
f 111/107/111 112/108/112 113/109/113 114/110/114 
f 115/111/115 1/4/1 4/1/4 116/112/116 
f 117/113/117 118/114/118 119/115/119 120/116/120 
f 121/117/121 122/118/122 123/119/123 124/120/124 
f 125/121/125 126/122/126 127/123/127 128/124/128 
f 129/125/129 130/126/130 131/127/131 132/128/132 
f 133/129/133 134/130/134 135/131/135 136/132/136 
f 137/133/137 138/134/138 139/135/139 140/136/140 
f 141/137/141 142/138/142 143/139/143 144/140/144 
f 145/141/145 146/142/146 147/143/147 148/144/148 
f 149/145/149 150/146/150 151/147/151 152/148/152 
f 153/149/153 154/150/154 155/151/155 156/152/156 
f 157/153/157 158/154/158 159/155/159 160/156/160 
f 161/157/161 162/158/162 163/159/163 164/160/164 
f 165/161/165 166/162/166 167/163/167 168/164/168 
f 169/165/169 170/166/170 171/167/171 172/168/172 
f 173/169/173 174/170/174 175/171/175 176/172/176 
f 177/173/177 178/174/178 179/175/179 180/176/180 
f 181/177/181 182/178/182 183/179/183 184/180/184 
f 185/181/185 186/182/186 187/183/187 188/184/188 
f 189/185/189 190/186/190 191/187/191 192/188/192 
f 193/189/193 194/190/194 195/191/195 196/192/196 
f 197/193/197 198/194/198 199/195/199 200/196/200 
f 201/197/201 202/198/202 203/199/203 204/200/204 
f 205/201/205 206/202/206 207/203/207 208/204/208 
f 209/205/209 210/206/210 211/207/211 212/208/212 
s 16
f 213/209/213 7/2/7 6/3/6 17/14/17 
f 214/210/214 215/211/215 20/212/20 19/18/19 
f 216/213/216 217/214/217 24/21/24 23/22/23 
f 218/215/218 219/216/219 28/25/28 27/26/27 
f 220/217/220 221/218/221 32/29/32 31/30/31 
f 222/219/222 223/220/223 36/33/36 35/34/35 
f 224/221/224 225/222/225 40/37/40 39/38/39 
f 226/223/226 227/224/227 44/41/44 43/42/43 
f 228/225/228 229/226/229 48/45/48 47/46/47 
f 230/227/230 231/228/231 52/49/52 51/50/51 
f 232/229/232 233/230/233 56/53/56 55/54/55 
f 234/231/234 235/232/235 60/57/60 59/58/59 
f 236/233/236 237/234/237 64/61/64 63/62/63 
f 238/235/238 239/236/239 68/65/68 67/66/67 
f 240/237/240 241/238/241 72/69/72 71/70/71 
f 242/239/242 243/240/243 76/73/76 75/74/75 
f 244/241/244 245/242/245 80/77/80 79/78/79 
f 246/243/246 247/244/247 84/81/84 83/82/83 
f 248/245/248 249/246/249 88/85/88 87/86/87 
f 250/247/250 251/248/251 92/89/92 91/90/91 
f 252/249/252 253/250/253 96/93/96 95/94/95 
f 254/251/254 255/252/255 100/97/100 99/98/99 
f 256/253/256 257/254/257 104/101/104 103/102/103 
f 258/255/258 259/256/259 108/105/108 107/106/107 
f 260/257/260 261/258/261 112/109/112 111/110/111 
f 116/111/116 4/4/4 3/1/3 262/259/262 
f 120/113/120 119/114/119 263/260/263 264/261/264 
f 124/117/124 123/118/123 265/262/265 266/263/266 
f 128/121/128 127/122/127 267/264/267 268/265/268 
f 132/125/132 131/126/131 269/266/269 270/267/270 
f 136/129/136 135/130/135 271/268/271 272/269/272 
f 140/133/140 139/134/139 273/270/273 274/271/274 
f 144/137/144 143/138/143 275/272/275 276/273/276 
f 148/141/148 147/142/147 277/274/277 278/275/278 
f 152/145/152 151/146/151 279/276/279 280/277/280 
f 156/149/156 155/150/155 281/278/281 282/279/282 
f 160/153/160 159/154/159 283/280/283 284/281/284 
f 164/157/164 163/158/163 285/282/285 286/283/286 
f 168/161/168 167/162/167 287/284/287 288/285/288 
f 172/165/172 171/166/171 289/286/289 290/287/290 
f 176/169/176 175/170/175 291/288/291 292/289/292 
f 180/173/180 179/174/179 293/290/293 294/291/294 
f 184/177/184 183/178/183 295/292/295 296/293/296 
f 188/181/188 187/182/187 297/294/297 298/295/298 
f 192/185/192 191/186/191 299/296/299 300/297/300 
f 196/189/196 195/190/195 301/298/301 302/299/302 
f 200/193/200 199/194/199 303/300/303 304/301/304 
f 204/197/204 203/198/203 305/302/305 306/303/306 
f 208/201/208 207/202/207 307/304/307 308/305/308 
f 212/205/212 211/206/211 309/306/309 310/307/310 
s 32
f 311/209/311 8/2/8 7/3/7 213/308/213 
f 312/210/312 313/211/313 215/309/215 214/310/214 
f 314/213/314 315/214/315 217/311/217 216/312/216 
f 316/215/316 317/216/317 219/313/219 218/314/218 
f 318/217/318 319/218/319 221/315/221 220/316/220 
f 320/219/320 321/220/321 223/317/223 222/318/222 
f 322/221/322 323/222/323 225/319/225 224/320/224 
f 324/223/324 325/224/325 227/321/227 226/322/226 
f 326/225/326 327/226/327 229/323/229 228/324/228 
f 328/227/328 329/228/329 231/325/231 230/326/230 
f 330/229/330 331/230/331 233/327/233 232/328/232 
f 332/231/332 333/232/333 235/329/235 234/330/234 
f 334/233/334 335/234/335 237/331/237 236/332/236 
f 336/235/336 337/236/337 239/333/239 238/334/238 
f 338/237/338 339/238/339 241/335/241 240/336/240 
f 340/239/340 341/240/341 243/337/243 242/338/242 
f 342/241/342 343/242/343 245/339/245 244/340/244 
f 344/243/344 345/244/345 247/341/247 246/342/246 
f 346/245/346 347/246/347 249/343/249 248/344/248 
f 348/247/348 349/248/349 251/345/251 250/346/250 
f 350/249/350 351/250/351 253/347/253 252/348/252 
f 352/251/352 353/252/353 255/349/255 254/350/254 
f 354/253/354 355/254/355 257/351/257 256/352/256 
f 356/255/356 357/256/357 259/353/259 258/354/258 
f 358/257/358 359/258/359 261/355/261 260/356/260 
f 262/357/262 3/4/3 2/1/2 360/259/360 
f 264/358/264 263/359/263 361/260/361 362/261/362 
f 266/360/266 265/361/265 363/262/363 364/263/364 
f 268/362/268 267/363/267 365/264/365 366/265/366 
f 270/364/270 269/365/269 367/266/367 368/267/368 
f 272/366/272 271/367/271 369/268/369 370/269/370 
f 274/368/274 273/369/273 371/270/371 372/271/372 
f 276/370/276 275/371/275 373/272/373 374/273/374 
f 278/372/278 277/373/277 375/274/375 376/275/376 
f 280/374/280 279/375/279 377/276/377 378/277/378 
f 282/376/282 281/377/281 379/278/379 380/279/380 
f 284/378/284 283/379/283 381/280/381 382/281/382 
f 286/380/286 285/381/285 383/282/383 384/283/384 
f 288/382/288 287/383/287 385/284/385 386/285/386 
f 290/384/290 289/385/289 387/286/387 388/287/388 
f 292/386/292 291/387/291 389/288/389 390/289/390 
f 294/388/294 293/389/293 391/290/391 392/291/392 
f 296/390/296 295/391/295 393/292/393 394/293/394 
f 298/392/298 297/393/297 395/294/395 396/295/396 
f 300/394/300 299/395/299 397/296/397 398/297/398 
f 302/396/302 301/397/301 399/298/399 400/299/400 
f 304/398/304 303/399/303 401/300/401 402/301/402 
f 306/400/306 305/401/305 403/302/403 404/303/404 
f 308/402/308 307/403/307 405/304/405 406/305/406 
f 310/404/310 309/405/309 407/306/407 408/307/408 
s 64
f 18/13/18 5/2/5 8/3/8 311/308/311 
f 22/15/22 21/406/21 313/309/313 312/310/312 
f 26/19/26 25/20/25 315/311/315 314/312/314 
f 30/23/30 29/24/29 317/313/317 316/314/316 
f 34/27/34 33/28/33 319/315/319 318/316/318 
f 38/31/38 37/32/37 321/317/321 320/318/320 
f 42/35/42 41/36/41 323/319/323 322/320/322 
f 46/39/46 45/40/45 325/321/325 324/322/324 
f 50/43/50 49/44/49 327/323/327 326/324/326 
f 54/47/54 53/48/53 329/325/329 328/326/328 
f 58/51/58 57/52/57 331/327/331 330/328/330 
f 62/55/62 61/56/61 333/329/333 332/330/332 
f 66/59/66 65/60/65 335/331/335 334/332/334 
f 70/63/70 69/64/69 337/333/337 336/334/336 
f 74/67/74 73/68/73 339/335/339 338/336/338 
f 78/71/78 77/72/77 341/337/341 340/338/340 
f 82/75/82 81/76/81 343/339/343 342/340/342 
f 86/79/86 85/80/85 345/341/345 344/342/344 
f 90/83/90 89/84/89 347/343/347 346/344/346 
f 94/87/94 93/88/93 349/345/349 348/346/348 
f 98/91/98 97/92/97 351/347/351 350/348/350 
f 102/95/102 101/96/101 353/349/353 352/350/352 
f 106/99/106 105/100/105 355/351/355 354/352/354 
f 110/103/110 109/104/109 357/353/357 356/354/356 
f 114/107/114 113/108/113 359/355/359 358/356/358 
f 360/357/360 2/4/2 1/1/1 115/112/115 
f 362/358/362 361/359/361 118/115/118 117/116/117 
f 364/360/364 363/361/363 122/119/122 121/120/121 
f 366/362/366 365/363/365 126/123/126 125/124/125 
f 368/364/368 367/365/367 130/127/130 129/128/129 
f 370/366/370 369/367/369 134/131/134 133/132/133 
f 372/368/372 371/369/371 138/135/138 137/136/137 
f 374/370/374 373/371/373 142/139/142 141/140/141 
f 376/372/376 375/373/375 146/143/146 145/144/145 
f 378/374/378 377/375/377 150/147/150 149/148/149 
f 380/376/380 379/377/379 154/151/154 153/152/153 
f 382/378/382 381/379/381 158/155/158 157/156/157 
f 384/380/384 383/381/383 162/159/162 161/160/161 
f 386/382/386 385/383/385 166/163/166 165/164/165 
f 388/384/388 387/385/387 170/167/170 169/168/169 
f 390/386/390 389/387/389 174/171/174 173/172/173 
f 392/388/392 391/389/391 178/175/178 177/176/177 
f 394/390/394 393/391/393 182/179/182 181/180/181 
f 396/392/396 395/393/395 186/183/186 185/184/185 
f 398/394/398 397/395/397 190/187/190 189/188/189 
f 400/396/400 399/397/399 194/191/194 193/192/193 
f 402/398/402 401/399/401 198/195/198 197/196/197 
f 404/400/404 403/401/403 202/199/202 201/200/201 
f 406/402/406 405/403/405 206/203/206 205/204/205 
f 408/404/408 407/405/407 210/207/210 209/208/209 
s off
f 10/6/10 409/407/409 410/408/410 11/7/11 
f 12/8/12 411/409/410 412/410/409 9/5/9 
f 14/10/14 413/407/411 409/408/409 10/7/10 
f 9/8/9 412/409/409 414/410/411 13/9/13 
f 16/10/16 415/407/412 413/408/411 14/11/14 
f 13/12/13 414/409/411 416/410/412 15/9/15 
f 11/6/11 410/407/410 415/408/412 16/11/16 
f 15/12/15 416/409/412 411/410/410 12/5/12 
f 18/14/18 417/411/413 418/412/414 17/13/17 
f 20/16/20 418/412/414 417/411/413 21/17/21 
f 22/18/22 419/413/415 420/414/414 19/15/19 
f 24/20/24 420/414/414 419/413/415 25/21/25 
f 26/22/26 421/415/416 422/416/417 23/19/23 
f 28/24/28 422/416/417 421/415/416 29/25/29 
f 30/26/30 423/417/416 424/418/418 27/23/27 
f 32/28/32 424/418/418 423/417/416 33/29/33 
f 34/30/34 425/419/419 426/420/418 31/27/31 
f 36/32/36 426/420/418 425/419/419 37/33/37 
f 38/34/38 427/421/419 428/422/418 35/31/35 
f 40/36/40 428/422/418 427/421/419 41/37/41 
f 42/38/42 429/423/419 430/424/420 39/35/39 
f 44/40/44 430/424/420 429/423/419 45/41/45 
f 46/42/46 431/425/421 432/426/420 43/39/43 
f 48/44/48 432/426/420 431/425/421 49/45/49 
f 50/46/50 433/427/421 434/428/420 47/43/47 
f 52/48/52 434/428/420 433/427/421 53/49/53 
f 54/50/54 435/429/421 436/430/422 51/47/51 
f 56/52/56 436/430/422 435/429/421 57/53/57 
f 58/54/58 437/431/421 438/432/422 55/51/55 
f 60/56/60 438/432/422 437/431/421 61/57/61 
f 62/58/62 439/433/423 440/434/422 59/55/59 
f 64/60/64 440/434/422 439/433/423 65/61/65 
f 66/62/66 441/435/423 442/436/422 63/59/63 
f 68/64/68 442/436/422 441/435/423 69/65/69 
f 70/66/70 443/437/423 444/438/422 67/63/67 
f 72/68/72 444/438/422 443/437/423 73/69/73 
f 74/70/74 445/439/423 446/440/422 71/67/71 
f 76/72/76 446/440/422 445/439/423 77/73/77 
f 78/74/78 447/441/423 448/442/422 75/71/75 
f 80/76/80 448/442/422 447/441/423 81/77/81 
f 82/78/82 449/443/423 450/444/409 79/75/79 
f 84/80/84 450/444/409 449/443/423 85/81/85 
f 86/82/86 451/445/423 452/446/409 83/79/83 
f 88/84/88 452/446/409 451/445/423 89/85/89 
f 90/86/90 453/447/410 454/448/409 87/83/87 
f 92/88/92 454/448/409 453/447/410 93/89/93 
f 94/90/94 455/449/410 456/450/409 91/87/91 
f 96/92/96 456/450/409 455/449/410 97/93/97 
f 98/94/98 457/451/410 458/452/409 95/91/95 
f 100/96/100 458/452/409 457/451/410 101/97/101 
f 102/98/102 459/453/410 460/454/409 99/95/99 
f 104/100/104 460/454/409 459/453/410 105/101/105 
f 106/102/106 461/455/410 462/456/409 103/99/103 
f 108/104/108 462/456/409 461/455/410 109/105/109 
f 110/106/110 463/457/410 464/458/409 107/103/107 
f 112/108/112 464/458/409 463/457/410 113/109/113 
f 114/110/114 410/408/410 409/407/409 111/107/111 
f 116/112/116 465/459/424 466/460/425 115/111/115 
f 118/114/118 466/460/425 465/459/424 119/115/119 
f 120/116/120 467/461/424 468/462/425 117/113/117 
f 122/118/122 468/462/425 467/461/424 123/119/123 
f 124/120/124 469/463/424 470/464/425 121/117/121 
f 126/122/126 470/464/425 469/463/424 127/123/127 
f 128/124/128 471/465/424 472/466/425 125/121/125 
f 130/126/130 472/466/425 471/465/424 131/127/131 
f 132/128/132 473/467/424 474/468/425 129/125/129 
f 134/130/134 474/468/425 473/467/424 135/131/135 
f 136/132/136 475/469/424 476/470/425 133/129/133 
f 138/134/138 476/470/425 475/469/424 139/135/139 
f 140/136/140 477/471/424 478/472/425 137/133/137 
f 142/138/142 478/472/425 477/471/424 143/139/143 
f 144/140/144 479/473/424 480/474/425 141/137/141 
f 146/142/146 480/474/425 479/473/424 147/143/147 
f 148/144/148 481/475/424 482/476/425 145/141/145 
f 150/146/150 482/476/425 481/475/424 151/147/151 
f 152/148/152 483/477/424 484/478/425 149/145/149 
f 154/150/154 484/478/425 483/477/424 155/151/155 
f 156/152/156 485/479/424 486/480/425 153/149/153 
f 158/154/158 486/480/425 485/479/424 159/155/159 
f 160/156/160 487/481/424 488/482/425 157/153/157 
f 162/158/162 488/482/425 487/481/424 163/159/163 
f 164/160/164 489/483/424 490/484/425 161/157/161 
f 166/162/166 490/484/425 489/483/424 167/163/167 
f 168/164/168 491/485/424 492/486/425 165/161/165 
f 170/166/170 492/486/425 491/485/424 171/167/171 
f 172/168/172 493/487/424 494/488/425 169/165/169 
f 174/170/174 494/488/425 493/487/424 175/171/175 
f 176/172/176 495/489/424 496/490/410 173/169/173 
f 178/174/178 496/490/410 495/489/424 179/175/179 
f 180/176/180 497/491/424 498/492/410 177/173/177 
f 182/178/182 498/492/410 497/491/424 183/179/183 
f 184/180/184 499/493/424 500/494/410 181/177/181 
f 186/182/186 500/494/410 499/493/424 187/183/187 
f 188/184/188 501/495/424 502/496/410 185/181/185 
f 190/186/190 502/496/410 501/495/424 191/187/191 
f 192/188/192 503/497/424 504/498/410 189/185/189 
f 194/190/194 504/498/410 503/497/424 195/191/195 
f 196/192/196 505/499/424 506/500/410 193/189/193 
f 198/194/198 506/500/410 505/499/424 199/195/199 
f 200/196/200 507/501/424 508/502/410 197/193/197 
f 202/198/202 508/502/410 507/501/424 203/199/203 
f 204/200/204 509/503/409 510/504/410 201/197/201 
f 206/202/206 510/504/410 509/503/409 207/203/207 
f 208/204/208 511/505/409 512/506/410 205/201/205 
f 210/206/210 512/506/410 511/505/409 211/207/211 
f 212/208/212 412/410/409 411/409/410 209/205/209 
f 17/14/17 418/411/414 513/412/426 213/209/213 
f 215/211/215 513/412/426 418/411/414 20/212/20 
f 19/18/19 420/413/414 514/414/427 214/210/214 
f 217/214/217 514/414/427 420/413/414 24/21/24 
f 23/22/23 422/415/417 515/416/427 216/213/216 
f 219/216/219 515/416/427 422/415/417 28/25/28 
f 27/26/27 424/417/418 516/418/428 218/215/218 
f 221/218/221 516/418/428 424/417/418 32/29/32 
f 31/30/31 426/419/418 517/420/428 220/217/220 
f 223/220/223 517/420/428 426/419/418 36/33/36 
f 35/34/35 428/421/418 518/422/428 222/219/222 
f 225/222/225 518/422/428 428/421/418 40/37/40 
f 39/38/39 430/423/420 519/424/429 224/221/224 
f 227/224/227 519/424/429 430/423/420 44/41/44 
f 43/42/43 432/425/420 520/426/429 226/223/226 
f 229/226/229 520/426/429 432/425/420 48/45/48 
f 47/46/47 434/427/420 521/428/430 228/225/228 
f 231/228/231 521/428/430 434/427/420 52/49/52 
f 51/50/51 436/429/422 522/430/430 230/227/230 
f 233/230/233 522/430/430 436/429/422 56/53/56 
f 55/54/55 438/431/422 523/432/430 232/229/232 
f 235/232/235 523/432/430 438/431/422 60/57/60 
f 59/58/59 440/433/422 524/434/430 234/231/234 
f 237/234/237 524/434/430 440/433/422 64/61/64 
f 63/62/63 442/435/422 525/436/430 236/233/236 
f 239/236/239 525/436/430 442/435/422 68/65/68 
f 67/66/67 444/437/422 526/438/430 238/235/238 
f 241/238/241 526/438/430 444/437/422 72/69/72 
f 71/70/71 446/439/422 527/440/430 240/237/240 
f 243/240/243 527/440/430 446/439/422 76/73/76 
f 75/74/75 448/441/422 528/442/430 242/239/242 
f 245/242/245 528/442/430 448/441/422 80/77/80 
f 79/78/79 450/443/409 529/444/430 244/241/244 
f 247/244/247 529/444/430 450/443/409 84/81/84 
f 83/82/83 452/445/409 530/446/430 246/243/246 
f 249/246/249 530/446/430 452/445/409 88/85/88 
f 87/86/87 454/447/409 531/448/430 248/245/248 
f 251/248/251 531/448/430 454/447/409 92/89/92 
f 91/90/91 456/449/409 532/450/430 250/247/250 
f 253/250/253 532/450/430 456/449/409 96/93/96 
f 95/94/95 458/451/409 533/452/430 252/249/252 
f 255/252/255 533/452/430 458/451/409 100/97/100 
f 99/98/99 460/453/409 534/454/411 254/251/254 
f 257/254/257 534/454/411 460/453/409 104/101/104 
f 103/102/103 462/455/409 535/456/411 256/253/256 
f 259/256/259 535/456/411 462/455/409 108/105/108 
f 107/106/107 464/457/409 536/458/411 258/255/258 
f 261/258/261 536/458/411 464/457/409 112/109/112 
f 111/110/111 409/408/409 413/407/411 260/257/260 
f 262/259/262 537/459/431 465/460/424 116/111/116 
f 119/114/119 465/460/424 537/459/431 263/260/263 
f 264/261/264 538/461/431 467/462/424 120/113/120 
f 123/118/123 467/462/424 538/461/431 265/262/265 
f 266/263/266 539/463/431 469/464/424 124/117/124 
f 127/122/127 469/464/424 539/463/431 267/264/267 
f 268/265/268 540/465/431 471/466/424 128/121/128 
f 131/126/131 471/466/424 540/465/431 269/266/269 
f 270/267/270 541/467/431 473/468/424 132/125/132 
f 135/130/135 473/468/424 541/467/431 271/268/271 
f 272/269/272 542/469/431 475/470/424 136/129/136 
f 139/134/139 475/470/424 542/469/431 273/270/273 
f 274/271/274 543/471/431 477/472/424 140/133/140 
f 143/138/143 477/472/424 543/471/431 275/272/275 
f 276/273/276 544/473/431 479/474/424 144/137/144 
f 147/142/147 479/474/424 544/473/431 277/274/277 
f 278/275/278 545/475/431 481/476/424 148/141/148 
f 151/146/151 481/476/424 545/475/431 279/276/279 
f 280/277/280 546/477/432 483/478/424 152/145/152 
f 155/150/155 483/478/424 546/477/432 281/278/281 
f 282/279/282 547/479/432 485/480/424 156/149/156 
f 159/154/159 485/480/424 547/479/432 283/280/283 
f 284/281/284 548/481/432 487/482/424 160/153/160 
f 163/158/163 487/482/424 548/481/432 285/282/285 
f 286/283/286 549/483/411 489/484/424 164/157/164 
f 167/162/167 489/484/424 549/483/411 287/284/287 
f 288/285/288 550/485/432 491/486/424 168/161/168 
f 171/166/171 491/486/424 550/485/432 289/286/289 
f 290/287/290 551/487/411 493/488/424 172/165/172 
f 175/170/175 493/488/424 551/487/411 291/288/291 
f 292/289/292 552/489/411 495/490/424 176/169/176 
f 179/174/179 495/490/424 552/489/411 293/290/293 
f 294/291/294 553/491/411 497/492/424 180/173/180 
f 183/178/183 497/492/424 553/491/411 295/292/295 
f 296/293/296 554/493/411 499/494/424 184/177/184 
f 187/182/187 499/494/424 554/493/411 297/294/297 
f 298/295/298 555/495/411 501/496/424 188/181/188 
f 191/186/191 501/496/424 555/495/411 299/296/299 
f 300/297/300 556/497/411 503/498/424 192/185/192 
f 195/190/195 503/498/424 556/497/411 301/298/301 
f 302/299/302 557/499/411 505/500/424 196/189/196 
f 199/194/199 505/500/424 557/499/411 303/300/303 
f 304/301/304 558/501/411 507/502/424 200/193/200 
f 203/198/203 507/502/424 558/501/411 305/302/305 
f 306/303/306 559/503/411 509/504/409 204/197/204 
f 207/202/207 509/504/409 559/503/411 307/304/307 
f 308/305/308 560/505/411 511/506/409 208/201/208 
f 211/206/211 511/506/409 560/505/411 309/306/309 
f 310/307/310 414/410/411 412/409/409 212/205/212 
f 213/308/213 513/411/426 561/412/433 311/209/311 
f 313/211/313 561/412/433 513/411/426 215/309/215 
f 214/310/214 514/413/427 562/414/434 312/210/312 
f 315/214/315 562/414/434 514/413/427 217/311/217 
f 216/312/216 515/415/427 563/416/434 314/213/314 
f 317/216/317 563/416/434 515/415/427 219/313/219 
f 218/314/218 516/417/428 564/418/435 316/215/316 
f 319/218/319 564/418/435 516/417/428 221/315/221 
f 220/316/220 517/419/428 565/420/435 318/217/318 
f 321/220/321 565/420/435 517/419/428 223/317/223 
f 222/318/222 518/421/428 566/422/435 320/219/320 
f 323/222/323 566/422/435 518/421/428 225/319/225 
f 224/320/224 519/423/429 567/424/436 322/221/322 
f 325/224/325 567/424/436 519/423/429 227/321/227 
f 226/322/226 520/425/429 568/426/436 324/223/324 
f 327/226/327 568/426/436 520/425/429 229/323/229 
f 228/324/228 521/427/430 569/428/437 326/225/326 
f 329/228/329 569/428/437 521/427/430 231/325/231 
f 230/326/230 522/429/430 570/430/438 328/227/328 
f 331/230/331 570/430/438 522/429/430 233/327/233 
f 232/328/232 523/431/430 571/432/438 330/229/330 
f 333/232/333 571/432/438 523/431/430 235/329/235 
f 234/330/234 524/433/430 572/434/438 332/231/332 
f 335/234/335 572/434/438 524/433/430 237/331/237 
f 236/332/236 525/435/430 573/436/438 334/233/334 
f 337/236/337 573/436/438 525/435/430 239/333/239 
f 238/334/238 526/437/430 574/438/438 336/235/336 
f 339/238/339 574/438/438 526/437/430 241/335/241 
f 240/336/240 527/439/430 575/440/438 338/237/338 
f 341/240/341 575/440/438 527/439/430 243/337/243 
f 242/338/242 528/441/430 576/442/438 340/239/340 
f 343/242/343 576/442/438 528/441/430 245/339/245 
f 244/340/244 529/443/430 577/444/438 342/241/342 
f 345/244/345 577/444/438 529/443/430 247/341/247 
f 246/342/246 530/445/430 578/446/438 344/243/344 
f 347/246/347 578/446/438 530/445/430 249/343/249 
f 248/344/248 531/447/430 579/448/438 346/245/346 
f 349/248/349 579/448/438 531/447/430 251/345/251 
f 250/346/250 532/449/430 580/450/438 348/247/348 
f 351/250/351 580/450/438 532/449/430 253/347/253 
f 252/348/252 533/451/430 581/452/412 350/249/350 
f 353/252/353 581/452/412 533/451/430 255/349/255 
f 254/350/254 534/453/411 582/454/412 352/251/352 
f 355/254/355 582/454/412 534/453/411 257/351/257 
f 256/352/256 535/455/411 583/456/412 354/253/354 
f 357/256/357 583/456/412 535/455/411 259/353/259 
f 258/354/258 536/457/411 584/458/412 356/255/356 
f 359/258/359 584/458/412 536/457/411 261/355/261 
f 260/356/260 413/408/411 415/407/412 358/257/358 
f 360/259/360 585/459/439 537/460/431 262/357/262 
f 263/359/263 537/460/431 585/459/439 361/260/361 
f 362/261/362 586/461/439 538/462/431 264/358/264 
f 265/361/265 538/462/431 586/461/439 363/262/363 
f 364/263/364 587/463/439 539/464/431 266/360/266 
f 267/363/267 539/464/431 587/463/439 365/264/365 
f 366/265/366 588/465/439 540/466/431 268/362/268 
f 269/365/269 540/466/431 588/465/439 367/266/367 
f 368/267/368 589/467/439 541/468/431 270/364/270 
f 271/367/271 541/468/431 589/467/439 369/268/369 
f 370/269/370 590/469/439 542/470/431 272/366/272 
f 273/369/273 542/470/431 590/469/439 371/270/371 
f 372/271/372 591/471/439 543/472/431 274/368/274 
f 275/371/275 543/472/431 591/471/439 373/272/373 
f 374/273/374 592/473/439 544/474/431 276/370/276 
f 277/373/277 544/474/431 592/473/439 375/274/375 
f 376/275/376 593/475/439 545/476/431 278/372/278 
f 279/375/279 545/476/431 593/475/439 377/276/377 
f 378/277/378 594/477/439 546/478/432 280/374/280 
f 281/377/281 546/478/432 594/477/439 379/278/379 
f 380/279/380 595/479/439 547/480/432 282/376/282 
f 283/379/283 547/480/432 595/479/439 381/280/381 
f 382/281/382 596/481/439 548/482/432 284/378/284 
f 285/381/285 548/482/432 596/481/439 383/282/383 
f 384/283/384 597/483/439 549/484/411 286/380/286 
f 287/383/287 549/484/411 597/483/439 385/284/385 
f 386/285/386 598/485/439 550/486/432 288/382/288 
f 289/385/289 550/486/432 598/485/439 387/286/387 
f 388/287/388 599/487/439 551/488/411 290/384/290 
f 291/387/291 551/488/411 599/487/439 389/288/389 
f 390/289/390 600/489/439 552/490/411 292/386/292 
f 293/389/293 552/490/411 600/489/439 391/290/391 
f 392/291/392 601/491/412 553/492/411 294/388/294 
f 295/391/295 553/492/411 601/491/412 393/292/393 
f 394/293/394 602/493/412 554/494/411 296/390/296 
f 297/393/297 554/494/411 602/493/412 395/294/395 
f 396/295/396 603/495/412 555/496/411 298/392/298 
f 299/395/299 555/496/411 603/495/412 397/296/397 
f 398/297/398 604/497/412 556/498/411 300/394/300 
f 301/397/301 556/498/411 604/497/412 399/298/399 
f 400/299/400 605/499/412 557/500/411 302/396/302 
f 303/399/303 557/500/411 605/499/412 401/300/401 
f 402/301/402 606/501/412 558/502/411 304/398/304 
f 305/401/305 558/502/411 606/501/412 403/302/403 
f 404/303/404 607/503/412 559/504/411 306/400/306 
f 307/403/307 559/504/411 607/503/412 405/304/405 
f 406/305/406 608/505/412 560/506/411 308/402/308 
f 309/405/309 560/506/411 608/505/412 407/306/407 
f 408/307/408 416/410/412 414/409/411 310/404/310 
f 311/308/311 561/411/433 417/412/413 18/13/18 
f 21/406/21 417/412/413 561/411/433 313/309/313 
f 312/310/312 562/413/434 419/414/415 22/15/22 
f 25/20/25 419/414/415 562/413/434 315/311/315 
f 314/312/314 563/415/434 421/416/416 26/19/26 
f 29/24/29 421/416/416 563/415/434 317/313/317 
f 316/314/316 564/417/435 423/418/416 30/23/30 
f 33/28/33 423/418/416 564/417/435 319/315/319 
f 318/316/318 565/419/435 425/420/419 34/27/34 
f 37/32/37 425/420/419 565/419/435 321/317/321 
f 320/318/320 566/421/435 427/422/419 38/31/38 
f 41/36/41 427/422/419 566/421/435 323/319/323 
f 322/320/322 567/423/436 429/424/419 42/35/42 
f 45/40/45 429/424/419 567/423/436 325/321/325 
f 324/322/324 568/425/436 431/426/421 46/39/46 
f 49/44/49 431/426/421 568/425/436 327/323/327 
f 326/324/326 569/427/437 433/428/421 50/43/50 
f 53/48/53 433/428/421 569/427/437 329/325/329 
f 328/326/328 570/429/438 435/430/421 54/47/54 
f 57/52/57 435/430/421 570/429/438 331/327/331 
f 330/328/330 571/431/438 437/432/421 58/51/58 
f 61/56/61 437/432/421 571/431/438 333/329/333 
f 332/330/332 572/433/438 439/434/423 62/55/62 
f 65/60/65 439/434/423 572/433/438 335/331/335 
f 334/332/334 573/435/438 441/436/423 66/59/66 
f 69/64/69 441/436/423 573/435/438 337/333/337 
f 336/334/336 574/437/438 443/438/423 70/63/70 
f 73/68/73 443/438/423 574/437/438 339/335/339 
f 338/336/338 575/439/438 445/440/423 74/67/74 
f 77/72/77 445/440/423 575/439/438 341/337/341 
f 340/338/340 576/441/438 447/442/423 78/71/78 
f 81/76/81 447/442/423 576/441/438 343/339/343 
f 342/340/342 577/443/438 449/444/423 82/75/82 
f 85/80/85 449/444/423 577/443/438 345/341/345 
f 344/342/344 578/445/438 451/446/423 86/79/86 
f 89/84/89 451/446/423 578/445/438 347/343/347 
f 346/344/346 579/447/438 453/448/410 90/83/90 
f 93/88/93 453/448/410 579/447/438 349/345/349 
f 348/346/348 580/449/438 455/450/410 94/87/94 
f 97/92/97 455/450/410 580/449/438 351/347/351 
f 350/348/350 581/451/412 457/452/410 98/91/98 
f 101/96/101 457/452/410 581/451/412 353/349/353 
f 352/350/352 582/453/412 459/454/410 102/95/102 
f 105/100/105 459/454/410 582/453/412 355/351/355 
f 354/352/354 583/455/412 461/456/410 106/99/106 
f 109/104/109 461/456/410 583/455/412 357/353/357 
f 356/354/356 584/457/412 463/458/410 110/103/110 
f 113/108/113 463/458/410 584/457/412 359/355/359 
f 358/356/358 415/408/412 410/407/410 114/107/114 
f 115/112/115 466/459/425 585/460/439 360/357/360 
f 361/359/361 585/460/439 466/459/425 118/115/118 
f 117/116/117 468/461/425 586/462/439 362/358/362 
f 363/361/363 586/462/439 468/461/425 122/119/122 
f 121/120/121 470/463/425 587/464/439 364/360/364 
f 365/363/365 587/464/439 470/463/425 126/123/126 
f 125/124/125 472/465/425 588/466/439 366/362/366 
f 367/365/367 588/466/439 472/465/425 130/127/130 
f 129/128/129 474/467/425 589/468/439 368/364/368 
f 369/367/369 589/468/439 474/467/425 134/131/134 
f 133/132/133 476/469/425 590/470/439 370/366/370 
f 371/369/371 590/470/439 476/469/425 138/135/138 
f 137/136/137 478/471/425 591/472/439 372/368/372 
f 373/371/373 591/472/439 478/471/425 142/139/142 
f 141/140/141 480/473/425 592/474/439 374/370/374 
f 375/373/375 592/474/439 480/473/425 146/143/146 
f 145/144/145 482/475/425 593/476/439 376/372/376 
f 377/375/377 593/476/439 482/475/425 150/147/150 
f 149/148/149 484/477/425 594/478/439 378/374/378 
f 379/377/379 594/478/439 484/477/425 154/151/154 
f 153/152/153 486/479/425 595/480/439 380/376/380 
f 381/379/381 595/480/439 486/479/425 158/155/158 
f 157/156/157 488/481/425 596/482/439 382/378/382 
f 383/381/383 596/482/439 488/481/425 162/159/162 
f 161/160/161 490/483/425 597/484/439 384/380/384 
f 385/383/385 597/484/439 490/483/425 166/163/166 
f 165/164/165 492/485/425 598/486/439 386/382/386 
f 387/385/387 598/486/439 492/485/425 170/167/170 
f 169/168/169 494/487/425 599/488/439 388/384/388 
f 389/387/389 599/488/439 494/487/425 174/171/174 
f 173/172/173 496/489/410 600/490/439 390/386/390 
f 391/389/391 600/490/439 496/489/410 178/175/178 
f 177/176/177 498/491/410 601/492/412 392/388/392 
f 393/391/393 601/492/412 498/491/410 182/179/182 
f 181/180/181 500/493/410 602/494/412 394/390/394 
f 395/393/395 602/494/412 500/493/410 186/183/186 
f 185/184/185 502/495/410 603/496/412 396/392/396 
f 397/395/397 603/496/412 502/495/410 190/187/190 
f 189/188/189 504/497/410 604/498/412 398/394/398 
f 399/397/399 604/498/412 504/497/410 194/191/194 
f 193/192/193 506/499/410 605/500/412 400/396/400 
f 401/399/401 605/500/412 506/499/410 198/195/198 
f 197/196/197 508/501/410 606/502/412 402/398/402 
f 403/401/403 606/502/412 508/501/410 202/199/202 
f 201/200/201 510/503/410 607/504/412 404/400/404 
f 405/403/405 607/504/412 510/503/410 206/203/206 
f 205/204/205 512/505/410 608/506/412 406/402/406 
f 407/405/407 608/506/412 512/505/410 210/207/210 
f 209/208/209 411/410/410 416/409/412 408/404/408 
# 606 polygons

